/home/batmag/batmag_ws/src/batmag_soft/src/control/pid5d.cpp: In member function ‘virtual std::vector<double> PID5D::evaluate()’:
/home/batmag/batmag_ws/src/batmag_soft/src/control/pid5d.cpp:189:5: error: expected ‘;’ before ‘std’
     std::vector<double> stdResult={result[0], result[1], result[2], result[3], result[4], result[5]};
     ^
make[2]: *** [CMakeFiles/controlnode.dir/src/control/pid5d.cpp.o] Error 1
make[1]: *** [CMakeFiles/controlnode.dir/all] Error 2
make: *** [all] Error 2
