/home/batmag/batmag_ws/src/batmag_soft/src/tracker/ColorTracker/TrackerColor.cpp: In member function ‘virtual bool TrackerColor::processFrame(const cv::Mat&, cv::Mat&, cv::Point2f&)’:
/home/batmag/batmag_ws/src/batmag_soft/src/tracker/ColorTracker/TrackerColor.cpp:315:43: error: ‘ROS_INFO_sTREAM’ was not declared in this scope
                 ROS_INFO_sTREAM("CamShift");
                                           ^
make[2]: *** [CMakeFiles/tracker.dir/src/tracker/ColorTracker/TrackerColor.cpp.o] Error 1
make[1]: *** [CMakeFiles/tracker.dir/all] Error 2
make: *** [all] Error 2
