/home/batmag/batmag_ws/src/batmag_soft/src/tracker/imageprocessing.cpp: In member function ‘void ImageProcessing::clickCb(const CameraClickConstPtr&)’:
/home/batmag/batmag_ws/src/batmag_soft/src/tracker/imageprocessing.cpp:532:56: warning: narrowing conversion of ‘((ImageProcessing*)this)->ImageProcessing::pxRef[agentN].cv::Point3_<double>::x’ from ‘double’ to ‘float’ inside { } [-Wnarrowing]
                     camPxRef[0][agentN]={pxRef[agentN].x, pxRef[agentN].y};
                                                        ^
/home/batmag/batmag_ws/src/batmag_soft/src/tracker/imageprocessing.cpp:532:73: warning: narrowing conversion of ‘((ImageProcessing*)this)->ImageProcessing::pxRef[agentN].cv::Point3_<double>::y’ from ‘double’ to ‘float’ inside { } [-Wnarrowing]
                     camPxRef[0][agentN]={pxRef[agentN].x, pxRef[agentN].y};
                                                                         ^
/home/batmag/batmag_ws/src/batmag_soft/src/tracker/imageprocessing.cpp:549:52: warning: narrowing conversion of ‘((ImageProcessing*)this)->ImageProcessing::pxRef[agentN].cv::Point3_<double>::x’ from ‘double’ to ‘float’ inside { } [-Wnarrowing]
                 camPxRef[0][agentN]={pxRef[agentN].x, pxRef[agentN].z};
                                                    ^
/home/batmag/batmag_ws/src/batmag_soft/src/tracker/imageprocessing.cpp:549:69: warning: narrowing conversion of ‘((ImageProcessing*)this)->ImageProcessing::pxRef[agentN].cv::Point3_<double>::z’ from ‘double’ to ‘float’ inside { } [-Wnarrowing]
                 camPxRef[0][agentN]={pxRef[agentN].x, pxRef[agentN].z};
                                                                     ^
/home/batmag/batmag_ws/src/batmag_soft/src/tracker/imageprocessing.cpp:550:52: warning: narrowing conversion of ‘((ImageProcessing*)this)->ImageProcessing::pxRef[agentN].cv::Point3_<double>::y’ from ‘double’ to ‘float’ inside { } [-Wnarrowing]
                 camPxRef[1][agentN]={pxRef[agentN].y, pxRef[agentN].z};
                                                    ^
/home/batmag/batmag_ws/src/batmag_soft/src/tracker/imageprocessing.cpp:550:69: warning: narrowing conversion of ‘((ImageProcessing*)this)->ImageProcessing::pxRef[agentN].cv::Point3_<double>::z’ from ‘double’ to ‘float’ inside { } [-Wnarrowing]
                 camPxRef[1][agentN]={pxRef[agentN].y, pxRef[agentN].z};
                                                                     ^
/home/batmag/batmag_ws/src/batmag_soft/src/tracker/imageprocessing.cpp: In member function ‘void ImageProcessing::omegaMsgCb(const ConstPtr&)’:
/home/batmag/batmag_ws/src/batmag_soft/src/tracker/imageprocessing.cpp:604:35: warning: narrowing conversion of ‘ImageProcessing::mmTopixels((*(const double*)((ImageProcessing*)this)->ImageProcessing::refMsg.batmag_soft::Reference_<std::allocator<void> >::ref.boost::array<T, N>::operator[]<double, 7ul>(0ul)))’ from ‘double’ to ‘float’ inside { } [-Wnarrowing]
         camPxRef[0][0]={mmTopixels(refMsg.ref[0]), mmTopixels(refMsg.ref[2])};
                                   ^
/home/batmag/batmag_ws/src/batmag_soft/src/tracker/imageprocessing.cpp:604:62: warning: narrowing conversion of ‘ImageProcessing::mmTopixels((*(const double*)((ImageProcessing*)this)->ImageProcessing::refMsg.batmag_soft::Reference_<std::allocator<void> >::ref.boost::array<T, N>::operator[]<double, 7ul>(2ul)))’ from ‘double’ to ‘float’ inside { } [-Wnarrowing]
         camPxRef[0][0]={mmTopixels(refMsg.ref[0]), mmTopixels(refMsg.ref[2])};
                                                              ^
/home/batmag/batmag_ws/src/batmag_soft/src/tracker/imageprocessing.cpp:605:35: warning: narrowing conversion of ‘ImageProcessing::mmTopixels((*(const double*)((ImageProcessing*)this)->ImageProcessing::refMsg.batmag_soft::Reference_<std::allocator<void> >::ref.boost::array<T, N>::operator[]<double, 7ul>(1ul)))’ from ‘double’ to ‘float’ inside { } [-Wnarrowing]
         camPxRef[0][1]={mmTopixels(refMsg.ref[1]), mmTopixels(refMsg.ref[2])};
                                   ^
/home/batmag/batmag_ws/src/batmag_soft/src/tracker/imageprocessing.cpp:605:62: warning: narrowing conversion of ‘ImageProcessing::mmTopixels((*(const double*)((ImageProcessing*)this)->ImageProcessing::refMsg.batmag_soft::Reference_<std::allocator<void> >::ref.boost::array<T, N>::operator[]<double, 7ul>(2ul)))’ from ‘double’ to ‘float’ inside { } [-Wnarrowing]
         camPxRef[0][1]={mmTopixels(refMsg.ref[1]), mmTopixels(refMsg.ref[2])};
                                                              ^
