CMakeFiles/gui.dir/gui_automoc.cpp.o: In function `CtrlWindow::qt_static_metacall(QObject*, QMetaObject::Call, int, void**)':
gui_automoc.cpp:(.text+0x1518): undefined reference to `CtrlWindow::on_coil1current_editingFinished()'
gui_automoc.cpp:(.text+0x153e): undefined reference to `CtrlWindow::on_coil1current_valueChanged(int)'
collect2: error: ld returned 1 exit status
make[2]: *** [/home/batmag/batmag_ws/devel/.private/batmag_soft/lib/batmag_soft/gui] Error 1
make[1]: *** [CMakeFiles/gui.dir/all] Error 2
make: *** [all] Error 2
