-5.066143 -5.425739 -5.352040
-5.070140 -5.416375 -5.352035
-5.063515 -5.419644 -5.352033
-5.063684 -5.392676 -5.352016
-5.061017 -5.379752 -5.351984
-5.058904 -5.359663 -5.351941
-5.056159 -5.342089 -5.351897
-5.054006 -5.330831 -5.351867
-5.052619 -5.317526 -5.351852
-5.051035 -5.323269 -5.351852
-5.061977 -5.421218 -5.352017
-5.066407 -5.429971 -5.352015
-5.063333 -5.400116 -5.352019
-5.061642 -5.404548 -5.352012
-5.060300 -5.374639 -5.351970
-5.057336 -5.361909 -5.351936
-5.056158 -5.342497 -5.351890
-5.051962 -5.326314 -5.351844
-5.054908 -5.314310 -5.351821
-5.053434 -5.315658 -5.351824
-5.061359 -5.426477 -5.352045
-5.057331 -5.410200 -5.352038
-5.061122 -5.427121 -5.352043
-5.058126 -5.385971 -5.352014
-5.056702 -5.385071 -5.351991
-5.055314 -5.358993 -5.351946
-5.052747 -5.347258 -5.351911
-5.053106 -5.335613 -5.351866
-5.050515 -5.326407 -5.351850
-5.050736 -5.331303 -5.351860
-5.053687 -5.410511 -5.352060
-5.055834 -5.419529 -5.352053
-5.053220 -5.396772 -5.352051
-5.053572 -5.399824 -5.352028
-5.052006 -5.373693 -5.351990
-5.050555 -5.366782 -5.351957
-5.049872 -5.347748 -5.351914
-5.047990 -5.336699 -5.351884
-5.049990 -5.334885 -5.351871
-5.049214 -5.330510 -5.351877
-5.048774 -5.410881 -5.352067
-5.047508 -5.406600 -5.352075
-5.049788 -5.406661 -5.352064
-5.047776 -5.386393 -5.352043
-5.047297 -5.380713 -5.352011
-5.046062 -5.359366 -5.351978
-5.044877 -5.352183 -5.351948
-5.045146 -5.338262 -5.351916
-5.044577 -5.332192 -5.351914
-5.045312 -5.333196 -5.351907
-5.043728 -5.403660 -5.352090
-5.044664 -5.403725 -5.352084
-5.043253 -5.396808 -5.352083
-5.043722 -5.389129 -5.352056
-5.042080 -5.372395 -5.352028
-5.041060 -5.364107 -5.352002
-5.040507 -5.346105 -5.351974
-5.038816 -5.337757 -5.351955
-5.041277 -5.331762 -5.351943
-5.040134 -5.330245 -5.351945
-5.039970 -5.399255 -5.352091
-5.038460 -5.402422 -5.352090
-5.041091 -5.392746 -5.352081
-5.038084 -5.386334 -5.352065
-5.037717 -5.373185 -5.352036
-5.036009 -5.358302 -5.352013
-5.034418 -5.347105 -5.351988
-5.035330 -5.333255 -5.351968
-5.032340 -5.325846 -5.351973
-5.034906 -5.324862 -5.351971
-5.037894 -5.402295 -5.352095
-5.039144 -5.394311 -5.352093
-5.034430 -5.401232 -5.352083
-5.035718 -5.380397 -5.352067
-5.032276 -5.374599 -5.352047
-5.030981 -5.357016 -5.352019
-5.030064 -5.344059 -5.352002
-5.026116 -5.327593 -5.351989
-5.031339 -5.324618 -5.351990
-5.026753 -5.323742 -5.351988
-5.035394 -5.398154 -5.352082
-5.032471 -5.402279 -5.352078
-5.036613 -5.390728 -5.352076
-5.031020 -5.391020 -5.352060
-5.030187 -5.370145 -5.352037
-5.027211 -5.360652 -5.352019
-5.025259 -5.339700 -5.351996
-5.025396 -5.331216 -5.351987
-5.020077 -5.306511 -5.351983
-5.025735 -5.309657 -5.351986
-5.037234 -5.401901 -5.352082
-5.035230 -5.397934 -5.352081
-5.033803 -5.399531 -5.352084
-5.031289 -5.384470 -5.352068
-5.028392 -5.374541 -5.352047
-5.026265 -5.358343 -5.352026
-5.023745 -5.342576 -5.352011
-5.024075 -5.328677 -5.351995
-5.017458 -5.317134 -5.351991
-5.021721 -5.319610 -5.351994
-5.066146 -2.690930 -5.349360
-5.070132 -2.742062 -5.349336
-5.063501 -2.688540 -5.349339
-5.063662 -2.778786 -5.349309
-5.061001 -2.790293 -5.349291
-5.058884 -2.844214 -5.349258
-5.056134 -2.894960 -5.349197
-5.053999 -2.910942 -5.349156
-5.052582 -2.981100 -5.349108
-5.051033 -2.941882 -5.349106
-5.061952 -2.757594 -5.349315
-5.066378 -2.738433 -5.349300
-5.063357 -2.760026 -5.349300
-5.061623 -2.726341 -5.349303
-5.060258 -2.812516 -5.349271
-5.057323 -2.833300 -5.349224
-5.056107 -2.877455 -5.349180
-5.051904 -2.953370 -5.349093
-5.054865 -2.967839 -5.349057
-5.053452 -2.981881 -5.349017
-5.061390 -2.660843 -5.349339
-5.057342 -2.724743 -5.349323
-5.061125 -2.653665 -5.349340
-5.058125 -2.803232 -5.349328
-5.056768 -2.753058 -5.349281
-5.055292 -2.845588 -5.349251
-5.052798 -2.864318 -5.349191
-5.053108 -2.870057 -5.349133
-5.050561 -2.926775 -5.349055
-5.050774 -2.879808 -5.349086
-5.053704 -2.750802 -5.349361
-5.055837 -2.695867 -5.349342
-5.053224 -2.781532 -5.349348
-5.053579 -2.711314 -5.349316
-5.051988 -2.813971 -5.349288
-5.050575 -2.783633 -5.349244
-5.049854 -2.848864 -5.349184
-5.047972 -2.864871 -5.349143
-5.049987 -2.849959 -5.349097
-5.049239 -2.875308 -5.349098
-5.048796 -2.721039 -5.349347
-5.047516 -2.739932 -5.349363
-5.049766 -2.710920 -5.349346
-5.047782 -2.786838 -5.349347
-5.047308 -2.746824 -5.349303
-5.046056 -2.830009 -5.349268
-5.044909 -2.798805 -5.349238
-5.045174 -2.844163 -5.349169
-5.044605 -2.843722 -5.349154
-5.045355 -2.834985 -5.349151
-5.043765 -2.754636 -5.349375
-5.044666 -2.747728 -5.349351
-5.043266 -2.765730 -5.349385
-5.043720 -2.747387 -5.349349
-5.042062 -2.804312 -5.349342
-5.041066 -2.770320 -5.349315
-5.040509 -2.838966 -5.349267
-5.038832 -2.809318 -5.349237
-5.041283 -2.832733 -5.349215
-5.040145 -2.826768 -5.349227
-5.039989 -2.773799 -5.349379
-5.038471 -2.749470 -5.349403
-5.041068 -2.777808 -5.349373
-5.038084 -2.774303 -5.349391
-5.037736 -2.772723 -5.349368
-5.036019 -2.818557 -5.349343
-5.034448 -2.788436 -5.349315
-5.035341 -2.847698 -5.349275
-5.032348 -2.820682 -5.349301
-5.034892 -2.833399 -5.349304
-5.037929 -2.752841 -5.349408
-5.039139 -2.798508 -5.349366
-5.034403 -2.743766 -5.349401
-5.035714 -2.792213 -5.349405
-5.032237 -2.784502 -5.349401
-5.031003 -2.781747 -5.349380
-5.030032 -2.834638 -5.349341
-5.026105 -2.796422 -5.349343
-5.031297 -2.844501 -5.349303
-5.026726 -2.817447 -5.349339
-5.035388 -2.810545 -5.349368
-5.032471 -2.798815 -5.349393
-5.036612 -2.799884 -5.349414
-5.031001 -2.758041 -5.349426
-5.030204 -2.785283 -5.349405
-5.027216 -2.797484 -5.349382
-5.025267 -2.792759 -5.349365
-5.025399 -2.844974 -5.349323
-5.020091 -2.850190 -5.349352
-5.025732 -2.845162 -5.349381
-5.037243 -2.760654 -5.349404
-5.035248 -2.796195 -5.349439
-5.033796 -2.749866 -5.349458
-5.031313 -2.782693 -5.349444
-5.028417 -2.771852 -5.349428
-5.026289 -2.786749 -5.349401
-5.023758 -2.810272 -5.349392
-5.024084 -2.806530 -5.349365
-5.017464 -2.843752 -5.349388
-5.021710 -2.818894 -5.349389
-5.066140 -7.573508 -5.362403
-5.070128 -7.519963 -5.362429
-5.063516 -7.560483 -5.362418
-5.063695 -7.437827 -5.362542
-5.061033 -7.407311 -5.362677
-5.058921 -7.328918 -5.362837
-5.056169 -7.264106 -5.362998
-5.054028 -7.238349 -5.363135
-5.052612 -7.165169 -5.363223
-5.051045 -7.206247 -5.363225
-5.061955 -7.510429 -5.362462
-5.066383 -7.544898 -5.362459
-5.063307 -7.459530 -5.362515
-5.061650 -7.502273 -5.362532
-5.060307 -7.365690 -5.362720
-5.057317 -7.345679 -5.362874
-5.056161 -7.265628 -5.363049
-5.051939 -7.193276 -5.363257
-5.054873 -7.171963 -5.363313
-5.053411 -7.155889 -5.363357
-5.061370 -7.567970 -5.362376
-5.057352 -7.482604 -5.362429
-5.061129 -7.582887 -5.362409
-5.058153 -7.366841 -5.362553
-5.056696 -7.429662 -5.362666
-5.055351 -7.287152 -5.362843
-5.052711 -7.278866 -5.363030
-5.053121 -7.242965 -5.363153
-5.050480 -7.192568 -5.363272
-5.050745 -7.238497 -5.363212
-5.053690 -7.421418 -5.362287
-5.055809 -7.493073 -5.362328
-5.053222 -7.360709 -5.362362
-5.053568 -7.446659 -5.362474
-5.052025 -7.295364 -5.362604
-5.050541 -7.335175 -5.362777
-5.049876 -7.228462 -5.362950
-5.047966 -7.222307 -5.363068
-5.049967 -7.220110 -5.363112
-5.049220 -7.196252 -5.363113
-5.048797 -7.401223 -5.362280
-5.047510 -7.364954 -5.362256
-5.049793 -7.414228 -5.362329
-5.047781 -7.292632 -5.362390
-5.047275 -7.342227 -5.362535
-5.046059 -7.215104 -5.362679
-5.044881 -7.256011 -5.362808
-5.045136 -7.172806 -5.362918
-5.044585 -7.182312 -5.362940
-5.045335 -7.183086 -5.362928
-5.043748 -7.307332 -5.362214
-5.044660 -7.326168 -5.362247
-5.043261 -7.276358 -5.362236
-5.043725 -7.306388 -5.362367
-5.042078 -7.211099 -5.362446
-5.041048 -7.250641 -5.362585
-5.040510 -7.141029 -5.362684
-5.038832 -7.176898 -5.362757
-5.041267 -7.127564 -5.362767
-5.040129 -7.138848 -5.362740
-5.040014 -7.240027 -5.362241
-5.038495 -7.252358 -5.362199
-5.041105 -7.238434 -5.362258
-5.038114 -7.213363 -5.362300
-5.037735 -7.215650 -5.362421
-5.036038 -7.134477 -5.362498
-5.034459 -7.163782 -5.362589
-5.035308 -7.066983 -5.362626
-5.032347 -7.093780 -5.362623
-5.034878 -7.073426 -5.362616
-5.037909 -7.215218 -5.362235
-5.039074 -7.174969 -5.362237
-5.034438 -7.214244 -5.362242
-5.035676 -7.166459 -5.362340
-5.032291 -7.149395 -5.362394
-5.030991 -7.145383 -5.362497
-5.030047 -7.056319 -5.362516
-5.026114 -7.082763 -5.362558
-5.031261 -7.015347 -5.362552
-5.026718 -7.045783 -5.362562
-5.035408 -7.133077 -5.362245
-5.032565 -7.137128 -5.362217
-5.036631 -7.144342 -5.362272
-5.031052 -7.175527 -5.362320
-5.030213 -7.135451 -5.362430
-5.027236 -7.096914 -5.362467
-5.025290 -7.083903 -5.362539
-5.025346 -7.002794 -5.362539
-5.020151 -6.961310 -5.362529
-5.025752 -6.967836 -5.362520
-5.037247 -7.177300 -5.362245
-5.035268 -7.138429 -5.362227
-5.033824 -7.187907 -5.362239
-5.031336 -7.144427 -5.362317
-5.028437 -7.140477 -5.362392
-5.026303 -7.106347 -5.362470
-5.023759 -7.056229 -5.362517
-5.024067 -7.037566 -5.362547
-5.017465 -6.975883 -5.362531
-5.021715 -7.005816 -5.362534
-5.066141 -5.388010 -5.372595
-5.070091 -5.414293 -5.372552
-5.063524 -5.390862 -5.372538
-5.063657 -5.452766 -5.372413
-5.061006 -5.464736 -5.372284
-5.058884 -5.506157 -5.372114
-5.056137 -5.536682 -5.371926
-5.054004 -5.550513 -5.371786
-5.052586 -5.590852 -5.371717
-5.051043 -5.567358 -5.371744
-5.061996 -5.424407 -5.372545
-5.066408 -5.397261 -5.372572
-5.063285 -5.443377 -5.372521
-5.061649 -5.412433 -5.372477
-5.060269 -5.492053 -5.372266
-5.057303 -5.486962 -5.372098
-5.056154 -5.542427 -5.371920
-5.051922 -5.567548 -5.371719
-5.054916 -5.586319 -5.371663
-5.053443 -5.592862 -5.371643
-5.061371 -5.387432 -5.372640
-5.057387 -5.436970 -5.372603
-5.061129 -5.370314 -5.372640
-5.058165 -5.495827 -5.372469
-5.056737 -5.440984 -5.372312
-5.055353 -5.536657 -5.372126
-5.052771 -5.514945 -5.371963
-5.053160 -5.553519 -5.371833
-5.050521 -5.564883 -5.371733
-5.050763 -5.543710 -5.371771
-5.053719 -5.468986 -5.372729
-5.055826 -5.419745 -5.372728
-5.053231 -5.503255 -5.372711
-5.053579 -5.434977 -5.372567
-5.051997 -5.532151 -5.372396
-5.050552 -5.484048 -5.372228
-5.049895 -5.563180 -5.372071
-5.048002 -5.538827 -5.371956
-5.050002 -5.555024 -5.371907
-5.049227 -5.560094 -5.371915
-5.048792 -5.475015 -5.372760
-5.047545 -5.501917 -5.372802
-5.049742 -5.454823 -5.372735
-5.047802 -5.535160 -5.372654
-5.047279 -5.483758 -5.372488
-5.046071 -5.572213 -5.372348
-5.044906 -5.520228 -5.372234
-5.045185 -5.586945 -5.372131
-5.044597 -5.559725 -5.372109
-5.045324 -5.565608 -5.372087
-5.043748 -5.526819 -5.372840
-5.044633 -5.506255 -5.372797
-5.043283 -5.546386 -5.372801
-5.043711 -5.508182 -5.372667
-5.042067 -5.573764 -5.372560
-5.041059 -5.526774 -5.372435
-5.040497 -5.606102 -5.372342
-5.038871 -5.557205 -5.372307
-5.041240 -5.599797 -5.372267
-5.040138 -5.583543 -5.372266
-5.039979 -5.557557 -5.372789
-5.038514 -5.555458 -5.372808
-5.041026 -5.549149 -5.372729
-5.038116 -5.570805 -5.372679
-5.037717 -5.551966 -5.372547
-5.036013 -5.609206 -5.372479
-5.034468 -5.567959 -5.372414
-5.035318 -5.639364 -5.372390
-5.032373 -5.602805 -5.372394
-5.034865 -5.619481 -5.372372
-5.037905 -5.566622 -5.372743
-5.039048 -5.584790 -5.372732
-5.034478 -5.569077 -5.372708
-5.035670 -5.583191 -5.372616
-5.032244 -5.598827 -5.372550
-5.030992 -5.581264 -5.372463
-5.029981 -5.647000 -5.372434
-5.026159 -5.602681 -5.372413
-5.031197 -5.657807 -5.372417
-5.026727 -5.630436 -5.372398
-5.035391 -5.612054 -5.372718
-5.032554 -5.610827 -5.372734
-5.036568 -5.599533 -5.372672
-5.031050 -5.582698 -5.372612
-5.030211 -5.594721 -5.372515
-5.027218 -5.622388 -5.372480
-5.025303 -5.608681 -5.372414
-5.025363 -5.670751 -5.372422
-5.020151 -5.673075 -5.372431
-5.025716 -5.669467 -5.372433
-5.037240 -5.581689 -5.372675
-5.035244 -5.605573 -5.372687
-5.033822 -5.574224 -5.372657
-5.031319 -5.597034 -5.372583
-5.028427 -5.594542 -5.372521
-5.026292 -5.607414 -5.372458
-5.023763 -5.634223 -5.372419
-5.024081 -5.634257 -5.372392
-5.017491 -5.671989 -5.372409
-5.021720 -5.649377 -5.372400
-5.066138 -6.169939 -5.373144
-5.070082 -6.166887 -5.373151
-5.063528 -6.163685 -5.373158
-5.063653 -6.147597 -5.373308
-5.061012 -6.139745 -5.373477
-5.058888 -6.123241 -5.373668
-5.056141 -6.114966 -5.373829
-5.054008 -6.108054 -5.373972
-5.052584 -6.095613 -5.374045
-5.051042 -6.103677 -5.374049
-5.061963 -6.170300 -5.373165
-5.066449 -6.175917 -5.373131
-5.063210 -6.147360 -5.373214
-5.061661 -6.159634 -5.373248
-5.060263 -6.122146 -5.373490
-5.057278 -6.137476 -5.373649
-5.056180 -6.099015 -5.373854
-5.051864 -6.107811 -5.374031
-5.054934 -6.093138 -5.374102
-5.053398 -6.091697 -5.374116
-5.061381 -6.158156 -5.373062
-5.057312 -6.143656 -5.373132
-5.061178 -6.167277 -5.373090
-5.058139 -6.117267 -5.373301
-5.056723 -6.149263 -5.373414
-5.055380 -6.090111 -5.373631
-5.052697 -6.128298 -5.373803
-5.053206 -6.083977 -5.373939
-5.050442 -6.099958 -5.374028
-5.050767 -6.100065 -5.373991
-5.053695 -6.129460 -5.372934
-5.055848 -6.147621 -5.372943
-5.053184 -6.106254 -5.373008
-5.053579 -6.139597 -5.373139
-5.052013 -6.085125 -5.373310
-5.050526 -6.128353 -5.373485
-5.049894 -6.066158 -5.373658
-5.047938 -6.107200 -5.373779
-5.050008 -6.078433 -5.373814
-5.049196 -6.083952 -5.373819
-5.048808 -6.113907 -5.372916
-5.047516 -6.096143 -5.372881
-5.049775 -6.124876 -5.372953
-5.047793 -6.077302 -5.373069
-5.047295 -6.115155 -5.373218
-5.046085 -6.053195 -5.373372
-5.044878 -6.104001 -5.373502
-5.045173 -6.044152 -5.373606
-5.044578 -6.075909 -5.373613
-5.045320 -6.062971 -5.373607
-5.043750 -6.081901 -5.372870
-5.044664 -6.095783 -5.372885
-5.043247 -6.064740 -5.372892
-5.043714 -6.092865 -5.373054
-5.042075 -6.048331 -5.373151
-5.041069 -6.088301 -5.373288
-5.040495 -6.027101 -5.373382
-5.038844 -6.072463 -5.373436
-5.041242 -6.033213 -5.373454
-5.040131 -6.045730 -5.373437
-5.040011 -6.061441 -5.372947
-5.038509 -6.054614 -5.372899
-5.041071 -6.066989 -5.372970
-5.038107 -6.046261 -5.373041
-5.037742 -6.063636 -5.373164
-5.036031 -6.022233 -5.373250
-5.034477 -6.057001 -5.373316
-5.035319 -6.003319 -5.373355
-5.032384 -6.028151 -5.373340
-5.034881 -6.014485 -5.373341
-5.037902 -6.045565 -5.373031
-5.039049 -6.041652 -5.373020
-5.034455 -6.040210 -5.373032
-5.035678 -6.038860 -5.373148
-5.032251 -6.024846 -5.373208
-5.031008 -6.041435 -5.373305
-5.029992 -5.995533 -5.373336
-5.026166 -6.025507 -5.373353
-5.031197 -5.991291 -5.373331
-5.026738 -6.004837 -5.373341
-5.035405 -6.022006 -5.373041
-5.032581 -6.021370 -5.373012
-5.036626 -6.025805 -5.373090
-5.031059 -6.032157 -5.373153
-5.030250 -6.026721 -5.373258
-5.027234 -6.007560 -5.373290
-5.025338 -6.018884 -5.373343
-5.025371 -5.983736 -5.373327
-5.020191 -5.976054 -5.373316
-5.025743 -5.973272 -5.373317
-5.037240 -6.030202 -5.373084
-5.035260 -6.019891 -5.373085
-5.033818 -6.033448 -5.373120
-5.031327 -6.022676 -5.373197
-5.028422 -6.022586 -5.373282
-5.026299 -6.016585 -5.373336
-5.023772 -5.998882 -5.373354
-5.024079 -5.999817 -5.373371
-5.017504 -5.976865 -5.373363
-5.021723 -5.987614 -5.373374
-5.066137 -6.266743 -5.394234
-5.070069 -6.242740 -5.394192
-5.063541 -6.258314 -5.394181
-5.063647 -6.200638 -5.394053
-5.061019 -6.182660 -5.393899
-5.058894 -6.152160 -5.393700
-5.056150 -6.122159 -5.393509
-5.054021 -6.110317 -5.393367
-5.052582 -6.093244 -5.393289
-5.051053 -6.099965 -5.393311
-5.061978 -6.239870 -5.394208
-5.066505 -6.252690 -5.394260
-5.063185 -6.214665 -5.394174
-5.061689 -6.218644 -5.394127
-5.060287 -6.176987 -5.393880
-5.057253 -6.139778 -5.393714
-5.056242 -6.136507 -5.393515
-5.051793 -6.088513 -5.393324
-5.055022 -6.091518 -5.393259
-5.053398 -6.088285 -5.393259
-5.061383 -6.258777 -5.394316
-5.057258 -6.226568 -5.394261
-5.061236 -6.254419 -5.394302
-5.058134 -6.185021 -5.394084
-5.056714 -6.166932 -5.393933
-5.055416 -6.160348 -5.393724
-5.052629 -6.095534 -5.393558
-5.053270 -6.127420 -5.393417
-5.050359 -6.081156 -5.393346
-5.050784 -6.099454 -5.393380
-5.053699 -6.201181 -5.394438
-5.055904 -6.215554 -5.394446
-5.053168 -6.186653 -5.394406
-5.053609 -6.179517 -5.394243
-5.052032 -6.162713 -5.394056
-5.050497 -6.110141 -5.393883
-5.049918 -6.134578 -5.393702
-5.047871 -6.064469 -5.393592
-5.050068 -6.096995 -5.393556
-5.049208 -6.078783 -5.393573
-5.048801 -6.185004 -5.394495
-5.047485 -6.183779 -5.394520
-5.049811 -6.172544 -5.394442
-5.047792 -6.159510 -5.394340
-5.047298 -6.121914 -5.394169
-5.046081 -6.134697 -5.394013
-5.044838 -6.068648 -5.393883
-5.045197 -6.102878 -5.393791
-5.044547 -6.059295 -5.393784
-5.045337 -6.073309 -5.393760
-5.043730 -6.155038 -5.394552
-5.044681 -6.149068 -5.394513
-5.043245 -6.151753 -5.394509
-5.043750 -6.125086 -5.394357
-5.042074 -6.124987 -5.394235
-5.041044 -6.076309 -5.394103
-5.040493 -6.098309 -5.393991
-5.038822 -6.039569 -5.393965
-5.041270 -6.060545 -5.393940
-5.040133 -6.049639 -5.393943
-5.039997 -6.125609 -5.394471
-5.038474 -6.132441 -5.394487
-5.041101 -6.116429 -5.394402
-5.038097 -6.114142 -5.394336
-5.037742 -6.086641 -5.394200
-5.035993 -6.089041 -5.394137
-5.034444 -6.042244 -5.394066
-5.035324 -6.056538 -5.394043
-5.032343 -6.029553 -5.394039
-5.034880 -6.033317 -5.394026
-5.037887 -6.110177 -5.394372
-5.039080 -6.102066 -5.394351
-5.034422 -6.108371 -5.394328
-5.035706 -6.090071 -5.394205
-5.032214 -6.080684 -5.394145
-5.031004 -6.048784 -5.394055
-5.029977 -6.052626 -5.394039
-5.026126 -6.010345 -5.394013
-5.031240 -6.014576 -5.394047
-5.026736 -6.012662 -5.394021
-5.035406 -6.095046 -5.394355
-5.032531 -6.093789 -5.394373
-5.036644 -6.092541 -5.394272
-5.031006 -6.084895 -5.394224
-5.030243 -6.068044 -5.394105
-5.027204 -6.056683 -5.394087
-5.025308 -6.021911 -5.394014
-5.025387 -6.015841 -5.394051
-5.020140 -5.991901 -5.394056
-5.025733 -5.990783 -5.394048
-5.037233 -6.096604 -5.394275
-5.035253 -6.093300 -5.394284
-5.033818 -6.094666 -5.394263
-5.031322 -6.082772 -5.394183
-5.028422 -6.067485 -5.394110
-5.026291 -6.046781 -5.394040
-5.023777 -6.031681 -5.394003
-5.024068 -6.005424 -5.393987
-5.017510 -5.996865 -5.393996
-5.021726 -5.995836 -5.393984
-5.066133 -5.353379 -5.390682
-5.070055 -5.402061 -5.390685
-5.063556 -5.360150 -5.390704
-5.063631 -5.471856 -5.390843
-5.061020 -5.497343 -5.391000
-5.058881 -5.558824 -5.391175
-5.056143 -5.612891 -5.391328
-5.054003 -5.636076 -5.391470
-5.052576 -5.678827 -5.391531
-5.051060 -5.658624 -5.391524
-5.061971 -5.419803 -5.390691
-5.066617 -5.379879 -5.390658
-5.063063 -5.448261 -5.390751
-5.061732 -5.420741 -5.390738
-5.060227 -5.519257 -5.390998
-5.057243 -5.561777 -5.391129
-5.056243 -5.595302 -5.391341
-5.051742 -5.667738 -5.391492
-5.055082 -5.681684 -5.391577
-5.053400 -5.682373 -5.391578
-5.061391 -5.353261 -5.390584
-5.057112 -5.428981 -5.390680
-5.061356 -5.345447 -5.390589
-5.058050 -5.511315 -5.390808
-5.056767 -5.498436 -5.390893
-5.055402 -5.556455 -5.391136
-5.052659 -5.631701 -5.391278
-5.053325 -5.607081 -5.391420
-5.050336 -5.669636 -5.391490
-5.050804 -5.637615 -5.391453
-5.053692 -5.477250 -5.390432
-5.055985 -5.423532 -5.390431
-5.053068 -5.510451 -5.390509
-5.053630 -5.473701 -5.390606
-5.051970 -5.546604 -5.390798
-5.050513 -5.591415 -5.390961
-5.049946 -5.591811 -5.391129
-5.047848 -5.674826 -5.391227
-5.050115 -5.638653 -5.391270
-5.049203 -5.661940 -5.391271
-5.048817 -5.491411 -5.390397
-5.047409 -5.509001 -5.390357
-5.049853 -5.490591 -5.390404
-5.047727 -5.550507 -5.390520
-5.047312 -5.570119 -5.390683
-5.046075 -5.591747 -5.390839
-5.044857 -5.656782 -5.390933
-5.045228 -5.635555 -5.391047
-5.044525 -5.677644 -5.391054
-5.045338 -5.661461 -5.391062
-5.043730 -5.553860 -5.390318
-5.044734 -5.546875 -5.390328
-5.043171 -5.565136 -5.390331
-5.043774 -5.574279 -5.390492
-5.042015 -5.605351 -5.390614
-5.041068 -5.645025 -5.390732
-5.040496 -5.646782 -5.390825
-5.038814 -5.700357 -5.390864
-5.041289 -5.690071 -5.390900
-5.040126 -5.692818 -5.390888
-5.040003 -5.602857 -5.390382
-5.038395 -5.592266 -5.390334
-5.041167 -5.605126 -5.390411
-5.038030 -5.618402 -5.390487
-5.037777 -5.638669 -5.390622
-5.035970 -5.661168 -5.390707
-5.034476 -5.699148 -5.390762
-5.035350 -5.710993 -5.390809
-5.032314 -5.720899 -5.390785
-5.034885 -5.723859 -5.390796
-5.037873 -5.620525 -5.390467
-5.039177 -5.639049 -5.390471
-5.034316 -5.623238 -5.390474
-5.035776 -5.646734 -5.390604
-5.032141 -5.668653 -5.390664
-5.031046 -5.693202 -5.390758
-5.029971 -5.720222 -5.390795
-5.026108 -5.742179 -5.390806
-5.031286 -5.768606 -5.390802
-5.026731 -5.752446 -5.390815
-5.035423 -5.661988 -5.390484
-5.032435 -5.662585 -5.390448
-5.036726 -5.653974 -5.390524
-5.030932 -5.654694 -5.390595
-5.030289 -5.674665 -5.390700
-5.027180 -5.704134 -5.390737
-5.025312 -5.732047 -5.390792
-5.025422 -5.778400 -5.390792
-5.020088 -5.792067 -5.390778
-5.025724 -5.789776 -5.390779
-5.037227 -5.638485 -5.390542
-5.035246 -5.656486 -5.390541
-5.033810 -5.635599 -5.390582
-5.031321 -5.660728 -5.390647
-5.028423 -5.675794 -5.390727
-5.026295 -5.704933 -5.390795
-5.023780 -5.733534 -5.390830
-5.024061 -5.762526 -5.390855
-5.017511 -5.790450 -5.390831
-5.021730 -5.777832 -5.390848
-5.066131 -7.828913 -5.408548
-5.070098 -7.746832 -5.408502
-5.063561 -7.809791 -5.408507
-5.063681 -7.622381 -5.408400
-5.061054 -7.575399 -5.408282
-5.058924 -7.469327 -5.408116
-5.056160 -7.379279 -5.407963
-5.054025 -7.339881 -5.407841
-5.052591 -7.269669 -5.407763
-5.051068 -7.303962 -5.407781
-5.061932 -7.725935 -5.408516
-5.066682 -7.780476 -5.408564
-5.063064 -7.655077 -5.408465
-5.061750 -7.705035 -5.408494
-5.060333 -7.527539 -5.408261
-5.057195 -7.467629 -5.408144
-5.056384 -7.393747 -5.407970
-5.051623 -7.288799 -5.407797
-5.055223 -7.257005 -5.407728
-5.053352 -7.257122 -5.407722
-5.061387 -7.813113 -5.408623
-5.056960 -7.685597 -5.408544
-5.061418 -7.825802 -5.408639
-5.058037 -7.533792 -5.408431
-5.056656 -7.567710 -5.408338
-5.055498 -7.445454 -5.408151
-5.052486 -7.344625 -5.408005
-5.053487 -7.359929 -5.407879
-5.050123 -7.271884 -5.407801
-5.050808 -7.318653 -5.407829
-5.053637 -7.595116 -5.408763
-5.056049 -7.685536 -5.408771
-5.053062 -7.523754 -5.408721
-5.053644 -7.593234 -5.408609
-5.052052 -7.448247 -5.408447
-5.050444 -7.394722 -5.408308
-5.050075 -7.363218 -5.408146
-5.047703 -7.248896 -5.408038
-5.050247 -7.289998 -5.407998
-5.049176 -7.255260 -5.408009
-5.048807 -7.551124 -5.408847
-5.047326 -7.512161 -5.408861
-5.049954 -7.550749 -5.408802
-5.047726 -7.428361 -5.408730
-5.047287 -7.411281 -5.408586
-5.046116 -7.345468 -5.408441
-5.044777 -7.261157 -5.408322
-5.045294 -7.264719 -5.408225
-5.044422 -7.209473 -5.408219
-5.045352 -7.226374 -5.408202
-5.043709 -7.420001 -5.408951
-5.044786 -7.434994 -5.408902
-5.043160 -7.388761 -5.408907
-5.043793 -7.382615 -5.408773
-5.042060 -7.309507 -5.408678
-5.041036 -7.260077 -5.408540
-5.040580 -7.227093 -5.408433
-5.038698 -7.155343 -5.408398
-5.041399 -7.152002 -5.408372
-5.040130 -7.149859 -5.408384
-5.040022 -7.313911 -5.408910
-5.038335 -7.325495 -5.408936
-5.041258 -7.308336 -5.408854
-5.038012 -7.275981 -5.408820
-5.037785 -7.246953 -5.408676
-5.036014 -7.190755 -5.408603
-5.034418 -7.138264 -5.408524
-5.035414 -7.094422 -5.408486
-5.032224 -7.078621 -5.408485
-5.034918 -7.067385 -5.408468
-5.037854 -7.259195 -5.408852
-5.039236 -7.225798 -5.408827
-5.034265 -7.252517 -5.408835
-5.035822 -7.208460 -5.408717
-5.032208 -7.169144 -5.408669
-5.031032 -7.129491 -5.408544
-5.030095 -7.067718 -5.408517
-5.025984 -7.029872 -5.408482
-5.031472 -6.980761 -5.408499
-5.026747 -7.004659 -5.408483
-5.035434 -7.171778 -5.408847
-5.032392 -7.171193 -5.408876
-5.036822 -7.181142 -5.408790
-5.030917 -7.189537 -5.408752
-5.030293 -7.146720 -5.408623
-5.027185 -7.094053 -5.408582
-5.025250 -7.042035 -5.408509
-5.025463 -6.960540 -5.408505
-5.020003 -6.910875 -5.408527
-5.025763 -6.913244 -5.408520
-5.037219 -7.206761 -5.408774
-5.035252 -7.171954 -5.408783
-5.033810 -7.214156 -5.408773
-5.031323 -7.167633 -5.408684
-5.028423 -7.142239 -5.408599
-5.026280 -7.089489 -5.408526
-5.023765 -7.031355 -5.408482
-5.024031 -6.979319 -5.408447
-5.017500 -6.920867 -5.408455
-5.021737 -6.943006 -5.408451
-5.066123 -2.515163 -5.415645
-5.070063 -2.587158 -5.415650
-5.063575 -2.518979 -5.415658
-5.063613 -2.659539 -5.415670
-5.061030 -2.683888 -5.415678
-5.058863 -2.759865 -5.415695
-5.056144 -2.827126 -5.415723
-5.053979 -2.853125 -5.415755
-5.052586 -2.917234 -5.415771
-5.051076 -2.884611 -5.415773
-5.061952 -2.615943 -5.415666
-5.066786 -2.583163 -5.415666
-5.062968 -2.636139 -5.415711
-5.061831 -2.594333 -5.415618
-5.060192 -2.719690 -5.415693
-5.057264 -2.760766 -5.415667
-5.056273 -2.809695 -5.415728
-5.051654 -2.899081 -5.415751
-5.055189 -2.921158 -5.415809
-5.053394 -2.923115 -5.415822
-5.061408 -2.506793 -5.415644
-5.056818 -2.605570 -5.415698
-5.061587 -2.497963 -5.415574
-5.057894 -2.718519 -5.415661
-5.056828 -2.677638 -5.415603
-5.055353 -2.768991 -5.415671
-5.052621 -2.843671 -5.415678
-5.053385 -2.821233 -5.415735
-5.050245 -2.897353 -5.415782
-5.050839 -2.853359 -5.415768
-5.053666 -2.672258 -5.415578
-5.056169 -2.595308 -5.415556
-5.052944 -2.718378 -5.415614
-5.053731 -2.647359 -5.415569
-5.051921 -2.759742 -5.415614
-5.050516 -2.787694 -5.415619
-5.049970 -2.807736 -5.415669
-5.047773 -2.893189 -5.415701
-5.050222 -2.854640 -5.415717
-5.049212 -2.883358 -5.415722
-5.048825 -2.679022 -5.415558
-5.047251 -2.709531 -5.415559
-5.050003 -2.672056 -5.415529
-5.047628 -2.766465 -5.415546
-5.047365 -2.763316 -5.415559
-5.046028 -2.813226 -5.415585
-5.044854 -2.866066 -5.415605
-5.045255 -2.857698 -5.415647
-5.044500 -2.895304 -5.415652
-5.045374 -2.880263 -5.415654
-5.043719 -2.767205 -5.415517
-5.044866 -2.753276 -5.415517
-5.043056 -2.786246 -5.415496
-5.043864 -2.778923 -5.415522
-5.041952 -2.833638 -5.415523
-5.041109 -2.855540 -5.415535
-5.040495 -2.877980 -5.415562
-5.038787 -2.919296 -5.415582
-5.041369 -2.919142 -5.415608
-5.040147 -2.917595 -5.415586
-5.040015 -2.835828 -5.415508
-5.038223 -2.820686 -5.415467
-5.041302 -2.835713 -5.415493
-5.037884 -2.851421 -5.415473
-5.037852 -2.861255 -5.415499
-5.035903 -2.900624 -5.415505
-5.034482 -2.922896 -5.415526
-5.035360 -2.955072 -5.415569
-5.032265 -2.952269 -5.415536
-5.034909 -2.962265 -5.415549
-5.037856 -2.859961 -5.415484
-5.039395 -2.894886 -5.415522
-5.034115 -2.859501 -5.415472
-5.035943 -2.893012 -5.415488
-5.032054 -2.913233 -5.415479
-5.031127 -2.926782 -5.415502
-5.029974 -2.972517 -5.415532
-5.026061 -2.973588 -5.415518
-5.031440 -3.017445 -5.415571
-5.026755 -2.992181 -5.415553
-5.035436 -2.933755 -5.415517
-5.032205 -2.927134 -5.415482
-5.036867 -2.921502 -5.415465
-5.030778 -2.898539 -5.415460
-5.030342 -2.922643 -5.415473
-5.027091 -2.953827 -5.415496
-5.025295 -2.971867 -5.415499
-5.025435 -3.037214 -5.415563
-5.019974 -3.047713 -5.415526
-5.025711 -3.045249 -5.415522
-5.037204 -2.894018 -5.415500
-5.035216 -2.928335 -5.415470
-5.033800 -2.883768 -5.415450
-5.031306 -2.918744 -5.415452
-5.028408 -2.924263 -5.415468
-5.026276 -2.952792 -5.415489
-5.023770 -2.986725 -5.415513
-5.024049 -3.007878 -5.415547
-5.017507 -3.048892 -5.415526
-5.021744 -3.027180 -5.415537
-5.066125 -5.527877 -5.407781
-5.070088 -5.514082 -5.407783
-5.063567 -5.520818 -5.407787
-5.063652 -5.484251 -5.407813
-5.061039 -5.469600 -5.407851
-5.058892 -5.444487 -5.407897
-5.056170 -5.424637 -5.407943
-5.054021 -5.410989 -5.407975
-5.052611 -5.398653 -5.407988
-5.051078 -5.403666 -5.407983
-5.061951 -5.518524 -5.407786
-5.066795 -5.534771 -5.407786
-5.062982 -5.489067 -5.407788
-5.061803 -5.503584 -5.407799
-5.060289 -5.459274 -5.407846
-5.057206 -5.449280 -5.407890
-5.056382 -5.423436 -5.407931
-5.051600 -5.407903 -5.407978
-5.055288 -5.394789 -5.408002
-5.053367 -5.396876 -5.407999
-5.061398 -5.527981 -5.407764
-5.056817 -5.502659 -5.407772
-5.061526 -5.532283 -5.407766
-5.057975 -5.471660 -5.407798
-5.056714 -5.475934 -5.407836
-5.055463 -5.442626 -5.407877
-5.052483 -5.427189 -5.407922
-5.053497 -5.416285 -5.407957
-5.050113 -5.404248 -5.407979
-5.050826 -5.409880 -5.407972
-5.053657 -5.501608 -5.407722
-5.056133 -5.515570 -5.407724
-5.052990 -5.483193 -5.407726
-5.053670 -5.490355 -5.407765
-5.052027 -5.457168 -5.407804
-5.050456 -5.445349 -5.407853
-5.050064 -5.428366 -5.407891
-5.047690 -5.409080 -5.407927
-5.050290 -5.410250 -5.407937
-5.049197 -5.404882 -5.407931
-5.048821 -5.498685 -5.407706
-5.047269 -5.491231 -5.407693
-5.049963 -5.495015 -5.407707
-5.047665 -5.467819 -5.407737
-5.047324 -5.459368 -5.407779
-5.046119 -5.438436 -5.407819
-5.044801 -5.420966 -5.407856
-5.045318 -5.412123 -5.407888
-5.044432 -5.400283 -5.407888
-5.045359 -5.402751 -5.407882
-5.043706 -5.484303 -5.407679
-5.044822 -5.486106 -5.407681
-5.043100 -5.474942 -5.407683
-5.043810 -5.467415 -5.407727
-5.042041 -5.447197 -5.407754
-5.041067 -5.432029 -5.407785
-5.040576 -5.417264 -5.407820
-5.038707 -5.398850 -5.407843
-5.041427 -5.395940 -5.407851
-5.040129 -5.393430 -5.407841
-5.040020 -5.474994 -5.407687
-5.038269 -5.475636 -5.407681
-5.041293 -5.469662 -5.407693
-5.037949 -5.457143 -5.407723
-5.037813 -5.443086 -5.407751
-5.035972 -5.425626 -5.407781
-5.034413 -5.406507 -5.407801
-5.035414 -5.394886 -5.407828
-5.032200 -5.381713 -5.407821
-5.034910 -5.382321 -5.407818
-5.037853 -5.473643 -5.407705
-5.039344 -5.467656 -5.407701
-5.034195 -5.470102 -5.407712
-5.035893 -5.451767 -5.407738
-5.032163 -5.438666 -5.407765
-5.031080 -5.417845 -5.407789
-5.030088 -5.403601 -5.407814
-5.025965 -5.377467 -5.407815
-5.031543 -5.378131 -5.407823
-5.026739 -5.374639 -5.407817
-5.035447 -5.469396 -5.407709
-5.032259 -5.473097 -5.407712
-5.036849 -5.461781 -5.407714
-5.030831 -5.457053 -5.407737
-5.030309 -5.435328 -5.407766
-5.027149 -5.420568 -5.407790
-5.025247 -5.393094 -5.407804
-5.025496 -5.383393 -5.407817
-5.019908 -5.348623 -5.407816
-5.025731 -5.356371 -5.407817
-5.037212 -5.472797 -5.407720
-5.035220 -5.468273 -5.407725
-5.033810 -5.469913 -5.407725
-5.031301 -5.452699 -5.407743
-5.028400 -5.438451 -5.407767
-5.026266 -5.418208 -5.407789
-5.023766 -5.398516 -5.407807
-5.024030 -5.378340 -5.407820
-5.017495 -5.364964 -5.407828
-5.021735 -5.367159 -5.407829
