4.785869 -5.740776 5.661205
4.786149 -5.740283 5.661206
4.785942 -5.741392 5.661205
4.786335 -5.743116 5.661203
4.786484 -5.745087 5.661200
4.786738 -5.746316 5.661198
4.786876 -5.747921 5.661195
4.787311 -5.749896 5.661193
4.786861 -5.749606 5.661193
4.787374 -5.750245 5.661192
4.785635 -5.738863 5.661208
4.785877 -5.740119 5.661206
4.786116 -5.741456 5.661205
4.786202 -5.742984 5.661203
4.786615 -5.743645 5.661202
4.786648 -5.748198 5.661194
4.787077 -5.748475 5.661195
4.787127 -5.747093 5.661193
4.787277 -5.752189 5.661188
4.787670 -5.747627 5.661192
4.785710 -5.742229 5.661206
4.785707 -5.741972 5.661206
4.785942 -5.741590 5.661206
4.786355 -5.743132 5.661203
4.786462 -5.747479 5.661198
4.786927 -5.743601 5.661199
4.787033 -5.748970 5.661194
4.787386 -5.750179 5.661192
4.787788 -5.747150 5.661195
4.787662 -5.750829 5.661192
4.785462 -5.742972 5.661202
4.785629 -5.742394 5.661202
4.785977 -5.743802 5.661201
4.786235 -5.745492 5.661199
4.786693 -5.742250 5.661199
4.786877 -5.750621 5.661194
4.787321 -5.744977 5.661194
4.787621 -5.749527 5.661194
4.787847 -5.749295 5.661192
4.788119 -5.748085 5.661192
4.785438 -5.743483 5.661190
4.785604 -5.743960 5.661192
4.785909 -5.744226 5.661191
4.786385 -5.742416 5.661191
4.786645 -5.750405 5.661190
4.787102 -5.741185 5.661191
4.787372 -5.752657 5.661191
4.787810 -5.745304 5.661191
4.788184 -5.750285 5.661192
4.788322 -5.748686 5.661192
4.785509 -5.743840 5.661178
4.785580 -5.743725 5.661177
4.786105 -5.742809 5.661177
4.786355 -5.748050 5.661179
4.786849 -5.739439 5.661180
4.787086 -5.754302 5.661184
4.787559 -5.741512 5.661184
4.787884 -5.754343 5.661188
4.788291 -5.747092 5.661185
4.788454 -5.750516 5.661186
4.785639 -5.742146 5.661162
4.785931 -5.742371 5.661163
4.786091 -5.743860 5.661164
4.786609 -5.739771 5.661165
4.786825 -5.752717 5.661172
4.787277 -5.737839 5.661172
4.787536 -5.755599 5.661181
4.787990 -5.743390 5.661178
4.788210 -5.752024 5.661185
4.788462 -5.748269 5.661181
4.786071 -5.741655 5.661154
4.785909 -5.739406 5.661154
4.786514 -5.741093 5.661153
4.786610 -5.746571 5.661162
4.787078 -5.735006 5.661159
4.787260 -5.756795 5.661176
4.787639 -5.739498 5.661168
4.787919 -5.755537 5.661181
4.788221 -5.749785 5.661174
4.788244 -5.752490 5.661180
4.786021 -5.735500 5.661146
4.786486 -5.739354 5.661146
4.786491 -5.736022 5.661150
4.786863 -5.738779 5.661151
4.787047 -5.750388 5.661168
4.787343 -5.737678 5.661158
4.787606 -5.753797 5.661178
4.787813 -5.746749 5.661169
4.787997 -5.749393 5.661177
4.788288 -5.749007 5.661171
4.786367 -5.738459 5.661153
4.786767 -5.737346 5.661154
4.786508 -5.739724 5.661154
4.786939 -5.741564 5.661159
4.787107 -5.742359 5.661163
4.787383 -5.747200 5.661169
4.787590 -5.747346 5.661172
4.787969 -5.750034 5.661176
4.787705 -5.752121 5.661175
4.788079 -5.751255 5.661176
4.785869 -3.066623 5.658588
4.786150 -3.071820 5.658586
4.785930 -3.061069 5.658583
4.786335 -3.048778 5.658573
4.786473 -3.033130 5.658565
4.786736 -3.026032 5.658560
4.786867 -3.012514 5.658551
4.787315 -3.001444 5.658546
4.786850 -3.001782 5.658540
4.787374 -2.998304 5.658535
4.785644 -3.079775 5.658599
4.785811 -3.068452 5.658601
4.786181 -3.065739 5.658579
4.786142 -3.047387 5.658573
4.786655 -3.049719 5.658564
4.786599 -3.007017 5.658558
4.787116 -3.015776 5.658548
4.787079 -3.016601 5.658535
4.787301 -2.988533 5.658538
4.787671 -3.012174 5.658523
4.785701 -3.052775 5.658586
4.785789 -3.056308 5.658572
4.785844 -3.055368 5.658574
4.786430 -3.047874 5.658566
4.786400 -3.008489 5.658558
4.786986 -3.048744 5.658553
4.786981 -2.995674 5.658534
4.787436 -3.002291 5.658551
4.787759 -3.010772 5.658514
4.787664 -2.992358 5.658532
4.785470 -3.038907 5.658563
4.785551 -3.043942 5.658567
4.786058 -3.034044 5.658547
4.786164 -3.019347 5.658550
4.786739 -3.049600 5.658545
4.786828 -2.978164 5.658534
4.787356 -3.032195 5.658547
4.787586 -2.985223 5.658515
4.787869 -2.998875 5.658543
4.788120 -2.999736 5.658527
4.785427 -3.027869 5.658535
4.785665 -3.024855 5.658518
4.785827 -3.021219 5.658523
4.786447 -3.038976 5.658524
4.786592 -2.972641 5.658520
4.787141 -3.052138 5.658534
4.787338 -2.954991 5.658515
4.787842 -3.022745 5.658548
4.788162 -2.973313 5.658516
4.788324 -2.991788 5.658534
4.785511 -3.018024 5.658486
4.785506 -3.015155 5.658493
4.786185 -3.028955 5.658490
4.786281 -2.981534 5.658493
4.786899 -3.057099 5.658510
4.787039 -2.933883 5.658502
4.787592 -3.043399 5.658539
4.787846 -2.933682 5.658503
4.788322 -3.000615 5.658546
4.788450 -2.968076 5.658532
4.785624 -3.021493 5.658458
4.785999 -3.027692 5.658451
4.785997 -3.001148 5.658454
4.786690 -3.048506 5.658479
4.786759 -2.936329 5.658478
4.787326 -3.065134 5.658519
4.787496 -2.915847 5.658497
4.788036 -3.025019 5.658552
4.788170 -2.944373 5.658515
4.788463 -2.980996 5.658541
4.786073 -3.022369 5.658425
4.785814 -3.024374 5.658428
4.786630 -3.038266 5.658455
4.786498 -2.971977 5.658447
4.787163 -3.083260 5.658499
4.787191 -2.897558 5.658475
4.787689 -3.051011 5.658543
4.787856 -2.906889 5.658492
4.788278 -2.973628 5.658556
4.788237 -2.942154 5.658537
4.786010 -3.061162 5.658412
4.786558 -3.044271 5.658425
4.786413 -3.043473 5.658418
4.786951 -3.050277 5.658471
4.786989 -2.942519 5.658459
4.787403 -3.059625 5.658516
4.787565 -2.918951 5.658496
4.787872 -2.993364 5.658548
4.787948 -2.950670 5.658521
4.788290 -2.966235 5.658534
4.786369 -3.040573 5.658434
4.786774 -3.046729 5.658431
4.786516 -3.033152 5.658451
4.786949 -3.017559 5.658461
4.787119 -3.015792 5.658484
4.787385 -2.977497 5.658502
4.787609 -2.980436 5.658516
4.787957 -2.956162 5.658530
4.787719 -2.946036 5.658533
4.788077 -2.949625 5.658531
4.785870 -7.703669 5.662827
4.786147 -7.697462 5.662827
4.785945 -7.710558 5.662833
4.786332 -7.726397 5.662850
4.786486 -7.743938 5.662868
4.786738 -7.749049 5.662879
4.786875 -7.764828 5.662898
4.787311 -7.771459 5.662902
4.786858 -7.771046 5.662913
4.787372 -7.773910 5.662917
4.785630 -7.691192 5.662797
4.785883 -7.700105 5.662798
4.786093 -7.713136 5.662821
4.786213 -7.726938 5.662842
4.786597 -7.723784 5.662853
4.786662 -7.780101 5.662885
4.787050 -7.753226 5.662887
4.787147 -7.767815 5.662911
4.787248 -7.777057 5.662913
4.787667 -7.761054 5.662912
4.785710 -7.728429 5.662824
4.785672 -7.731640 5.662832
4.785976 -7.720479 5.662831
4.786324 -7.739635 5.662849
4.786481 -7.785176 5.662874
4.786899 -7.725897 5.662874
4.787054 -7.803897 5.662908
4.787365 -7.770008 5.662893
4.787793 -7.782362 5.662921
4.787665 -7.790619 5.662911
4.785458 -7.763842 5.662846
4.785646 -7.751348 5.662841
4.785948 -7.773664 5.662862
4.786256 -7.784244 5.662867
4.786668 -7.745739 5.662873
4.786893 -7.838787 5.662893
4.787303 -7.757871 5.662879
4.787624 -7.831207 5.662914
4.787848 -7.793923 5.662886
4.788118 -7.804159 5.662903
4.785440 -7.792876 5.662902
4.785569 -7.800122 5.662916
4.785951 -7.799088 5.662912
4.786355 -7.778855 5.662913
4.786666 -7.861973 5.662918
4.787081 -7.754484 5.662898
4.787382 -7.884269 5.662917
4.787807 -7.783490 5.662877
4.788181 -7.860399 5.662910
4.788327 -7.827825 5.662891
4.785505 -7.825252 5.662989
4.785614 -7.829277 5.662988
4.786066 -7.810373 5.662990
4.786388 -7.870821 5.662980
4.786821 -7.769188 5.662955
4.787100 -7.929172 5.662954
4.787550 -7.780070 5.662910
4.787879 -7.929005 5.662936
4.788306 -7.829494 5.662893
4.788454 -7.878813 5.662912
4.785645 -7.843836 5.663074
4.785890 -7.831065 5.663077
4.786144 -7.871009 5.663076
4.786568 -7.800020 5.663041
4.786852 -7.946795 5.663024
4.787256 -7.772850 5.662973
4.787540 -7.968850 5.662971
4.787996 -7.816939 5.662910
4.788204 -7.934123 5.662939
4.788467 -7.879343 5.662919
4.786063 -7.859109 5.663143
4.785974 -7.867056 5.663155
4.786446 -7.831423 5.663122
4.786667 -7.926429 5.663108
4.787041 -7.768912 5.663053
4.787277 -8.011245 5.663033
4.787643 -7.802406 5.662971
4.787897 -7.998368 5.662986
4.788250 -7.892720 5.662931
4.788242 -7.943543 5.662948
4.786034 -7.834183 5.663193
4.786453 -7.845888 5.663174
4.786541 -7.856036 5.663175
4.786829 -7.825163 5.663110
4.787071 -7.967198 5.663075
4.787337 -7.805162 5.663030
4.787600 -7.989207 5.662999
4.787831 -7.880844 5.662953
4.787985 -7.955080 5.662969
4.788292 -7.925366 5.662961
4.786367 -7.854717 5.663156
4.786772 -7.849756 5.663158
4.786507 -7.859616 5.663136
4.786937 -7.875360 5.663106
4.787108 -7.870810 5.663069
4.787382 -7.915983 5.663029
4.787584 -7.907437 5.662999
4.787974 -7.938275 5.662974
4.787698 -7.947583 5.662964
4.788079 -7.944966 5.662966
4.785867 -6.204844 5.665516
4.786146 -6.207833 5.665517
4.785939 -6.201889 5.665512
4.786334 -6.190478 5.665500
4.786481 -6.181174 5.665485
4.786737 -6.180704 5.665476
4.786878 -6.169589 5.665463
4.787305 -6.169193 5.665459
4.786870 -6.167854 5.665454
4.787376 -6.167265 5.665454
4.785646 -6.209517 5.665553
4.785848 -6.210927 5.665548
4.786146 -6.189367 5.665536
4.786180 -6.196789 5.665516
4.786631 -6.195532 5.665506
4.786644 -6.153996 5.665482
4.787077 -6.185654 5.665480
4.787146 -6.162500 5.665468
4.787266 -6.170128 5.665468
4.787669 -6.172490 5.665470
4.785705 -6.191642 5.665529
4.785755 -6.176886 5.665527
4.785895 -6.206847 5.665530
4.786389 -6.176201 5.665511
4.786444 -6.152581 5.665494
4.786938 -6.201953 5.665490
4.787033 -6.135021 5.665471
4.787378 -6.178672 5.665482
4.787791 -6.152778 5.665465
4.787665 -6.157085 5.665470
4.785472 -6.162812 5.665531
4.785593 -6.182273 5.665536
4.786018 -6.149587 5.665520
4.786211 -6.156949 5.665521
4.786709 -6.182571 5.665513
4.786873 -6.112148 5.665500
4.787323 -6.183194 5.665512
4.787633 -6.116733 5.665491
4.787846 -6.158632 5.665511
4.788119 -6.142678 5.665498
4.785435 -6.147077 5.665490
4.785640 -6.134434 5.665482
4.785872 -6.147433 5.665491
4.786412 -6.155537 5.665486
4.786632 -6.096897 5.665487
4.787110 -6.183627 5.665502
4.787372 -6.080047 5.665495
4.787809 -6.168075 5.665526
4.788184 -6.099378 5.665504
4.788321 -6.130376 5.665519
4.785514 -6.122195 5.665416
4.785555 -6.122019 5.665423
4.786135 -6.131858 5.665419
4.786336 -6.090252 5.665431
4.786863 -6.170775 5.665450
4.787082 -6.047059 5.665458
4.787560 -6.169179 5.665493
4.787886 -6.050084 5.665480
4.788292 -6.135456 5.665512
4.788452 -6.093094 5.665498
4.785635 -6.106736 5.665333
4.785954 -6.117623 5.665333
4.786058 -6.086174 5.665340
4.786634 -6.145513 5.665362
4.786807 -6.031958 5.665384
4.787286 -6.173446 5.665426
4.787527 -6.020981 5.665438
4.788002 -6.145567 5.665486
4.788194 -6.049723 5.665468
4.788456 -6.095070 5.665482
4.786070 -6.095378 5.665255
4.785892 -6.083909 5.665250
4.786543 -6.119952 5.665271
4.786582 -6.041772 5.665290
4.787100 -6.173892 5.665331
4.787242 -5.985811 5.665361
4.787656 -6.155608 5.665407
4.787890 -6.004239 5.665408
4.788246 -6.095246 5.665445
4.788243 -6.052681 5.665437
4.786021 -6.104513 5.665211
4.786491 -6.100606 5.665222
4.786475 -6.087008 5.665225
4.786881 -6.125348 5.665276
4.787028 -6.014606 5.665315
4.787365 -6.149408 5.665352
4.787578 -6.009671 5.665389
4.787857 -6.099729 5.665424
4.787956 -6.038960 5.665420
4.788281 -6.063995 5.665417
4.786365 -6.093350 5.665233
4.786771 -6.095715 5.665229
4.786507 -6.091925 5.665246
4.786945 -6.083136 5.665274
4.787112 -6.092336 5.665308
4.787382 -6.062245 5.665345
4.787604 -6.074185 5.665377
4.787956 -6.054784 5.665400
4.787721 -6.051890 5.665408
4.788080 -6.052663 5.665409
4.785867 -6.574415 5.660417
4.786145 -6.574886 5.660415
4.785942 -6.572757 5.660419
4.786332 -6.580722 5.660431
4.786484 -6.581042 5.660443
4.786736 -6.576974 5.660451
4.786877 -6.583540 5.660461
4.787306 -6.578955 5.660460
4.786865 -6.580946 5.660464
4.787376 -6.580136 5.660464
4.785637 -6.578717 5.660372
4.785849 -6.565530 5.660375
4.786137 -6.601986 5.660382
4.786178 -6.563886 5.660407
4.786625 -6.574665 5.660410
4.786642 -6.600728 5.660434
4.787066 -6.564500 5.660433
4.787141 -6.594173 5.660443
4.787254 -6.575350 5.660437
4.787663 -6.580491 5.660434
4.785705 -6.575689 5.660395
4.785722 -6.607389 5.660392
4.785921 -6.547455 5.660391
4.786371 -6.600459 5.660406
4.786450 -6.596850 5.660422
4.786929 -6.556962 5.660422
4.787038 -6.614252 5.660440
4.787375 -6.563002 5.660429
4.787790 -6.596438 5.660440
4.787666 -6.584554 5.660435
4.785463 -6.598710 5.660374
4.785614 -6.566930 5.660366
4.785983 -6.619721 5.660377
4.786225 -6.585884 5.660381
4.786694 -6.575154 5.660384
4.786875 -6.625437 5.660394
4.787316 -6.560531 5.660386
4.787620 -6.620752 5.660398
4.787849 -6.576957 5.660380
4.788115 -6.595302 5.660388
4.785436 -6.596928 5.660403
4.785595 -6.619799 5.660406
4.785918 -6.586705 5.660397
4.786380 -6.595429 5.660404
4.786648 -6.630424 5.660398
4.787100 -6.558368 5.660384
4.787371 -6.641932 5.660387
4.787816 -6.562890 5.660359
4.788173 -6.622702 5.660371
4.788324 -6.594645 5.660360
4.785507 -6.612964 5.660468
4.785598 -6.605797 5.660463
4.786082 -6.610018 5.660466
4.786370 -6.630604 5.660451
4.786839 -6.566380 5.660435
4.787088 -6.662474 5.660421
4.787561 -6.558134 5.660393
4.787870 -6.652390 5.660391
4.788307 -6.580479 5.660369
4.788450 -6.614823 5.660381
4.785644 -6.621044 5.660553
4.785900 -6.614486 5.660553
4.786128 -6.633198 5.660546
4.786589 -6.585406 5.660528
4.786837 -6.672167 5.660500
4.787275 -6.551704 5.660466
4.787525 -6.670329 5.660441
4.788018 -6.567897 5.660403
4.788182 -6.641065 5.660408
4.788465 -6.607709 5.660404
4.786060 -6.626213 5.660640
4.785964 -6.636955 5.660649
4.786461 -6.606604 5.660637
4.786644 -6.666965 5.660608
4.787063 -6.552227 5.660578
4.787252 -6.699053 5.660534
4.787665 -6.557022 5.660502
4.787861 -6.666129 5.660477
4.788280 -6.594647 5.660462
4.788239 -6.623705 5.660464
4.786035 -6.629770 5.660687
4.786450 -6.630145 5.660681
4.786533 -6.639140 5.660670
4.786845 -6.597744 5.660631
4.787055 -6.682277 5.660582
4.787360 -6.564737 5.660554
4.787576 -6.666669 5.660504
4.787875 -6.594301 5.660483
4.787944 -6.632997 5.660471
4.788291 -6.620324 5.660482
4.786365 -6.632897 5.660678
4.786768 -6.632062 5.660679
4.786512 -6.631622 5.660666
4.786938 -6.633297 5.660636
4.787113 -6.618657 5.660603
4.787381 -6.635135 5.660565
4.787596 -6.618448 5.660534
4.787963 -6.624667 5.660510
4.787713 -6.622842 5.660501
4.788082 -6.622359 5.660500
4.785865 -6.778578 5.671303
4.786139 -6.774520 5.671305
4.785947 -6.785958 5.671301
4.786334 -6.781707 5.671292
4.786483 -6.791565 5.671280
4.786737 -6.799785 5.671273
4.786883 -6.797798 5.671266
4.787296 -6.805395 5.671264
4.786878 -6.802572 5.671262
4.787378 -6.804297 5.671265
4.785647 -6.765818 5.671355
4.785840 -6.789648 5.671353
4.786150 -6.740247 5.671344
4.786181 -6.813790 5.671322
4.786624 -6.790151 5.671316
4.786655 -6.782469 5.671299
4.787056 -6.818992 5.671297
4.787169 -6.788940 5.671291
4.787242 -6.807354 5.671301
4.787663 -6.799589 5.671299
4.785697 -6.797968 5.671332
4.785754 -6.748322 5.671332
4.785896 -6.842226 5.671337
4.786376 -6.761899 5.671317
4.786454 -6.797715 5.671308
4.786916 -6.825300 5.671303
4.787053 -6.780837 5.671294
4.787350 -6.831395 5.671305
4.787807 -6.799910 5.671293
4.787671 -6.812975 5.671296
4.785471 -6.790624 5.671364
4.785584 -6.836856 5.671370
4.786018 -6.760081 5.671354
4.786216 -6.825936 5.671360
4.786695 -6.819133 5.671349
4.786884 -6.790170 5.671347
4.787307 -6.847165 5.671358
4.787640 -6.797148 5.671351
4.787840 -6.834761 5.671366
4.788118 -6.818709 5.671354
4.785433 -6.823356 5.671339
4.785631 -6.787911 5.671334
4.785884 -6.845542 5.671347
4.786393 -6.816457 5.671335
4.786642 -6.806587 5.671347
4.787092 -6.864693 5.671359
4.787382 -6.800987 5.671366
4.787799 -6.868024 5.671395
4.788190 -6.822507 5.671382
4.788325 -6.843468 5.671387
4.785511 -6.828119 5.671275
4.785565 -6.844307 5.671281
4.786117 -6.822697 5.671273
4.786350 -6.825419 5.671295
4.786843 -6.873741 5.671308
4.787092 -6.803583 5.671329
4.787553 -6.891334 5.671360
4.787886 -6.824793 5.671365
4.788298 -6.877090 5.671385
4.788454 -6.855252 5.671372
4.785640 -6.840628 5.671186
4.785928 -6.841138 5.671184
4.786091 -6.837423 5.671198
4.786603 -6.871698 5.671211
4.786826 -6.810753 5.671246
4.787270 -6.913089 5.671282
4.787533 -6.828192 5.671309
4.788007 -6.904782 5.671351
4.788192 -6.863531 5.671347
4.788463 -6.878764 5.671349
4.786062 -6.851763 5.671090
4.785931 -6.844274 5.671085
4.786500 -6.864142 5.671092
4.786621 -6.823866 5.671129
4.787077 -6.922302 5.671160
4.787255 -6.814738 5.671205
4.787665 -6.929275 5.671242
4.787866 -6.871929 5.671269
4.788278 -6.910614 5.671281
4.788246 -6.904731 5.671287
4.786032 -6.844714 5.671047
4.786461 -6.843885 5.671050
4.786511 -6.842750 5.671066
4.786854 -6.883217 5.671104
4.787045 -6.825012 5.671154
4.787362 -6.927421 5.671190
4.787567 -6.866322 5.671240
4.787884 -6.913505 5.671264
4.787932 -6.913606 5.671286
4.788283 -6.904363 5.671263
4.786362 -6.849079 5.671050
4.786768 -6.849297 5.671047
4.786509 -6.851824 5.671060
4.786940 -6.857627 5.671092
4.787112 -6.877753 5.671128
4.787378 -6.875420 5.671169
4.787605 -6.897589 5.671206
4.787949 -6.907949 5.671232
4.787726 -6.913344 5.671239
4.788084 -6.915222 5.671243
4.785861 -6.500737 5.662700
4.786140 -6.507292 5.662700
4.785939 -6.488117 5.662701
4.786331 -6.488665 5.662712
4.786482 -6.468358 5.662721
4.786735 -6.455650 5.662730
4.786879 -6.452259 5.662736
4.787299 -6.441341 5.662737
4.786877 -6.443214 5.662740
4.787382 -6.441315 5.662739
4.785648 -6.522153 5.662644
4.785817 -6.491922 5.662637
4.786187 -6.551052 5.662659
4.786134 -6.441411 5.662672
4.786668 -6.479046 5.662682
4.786609 -6.467657 5.662697
4.787094 -6.430575 5.662698
4.787128 -6.458449 5.662708
4.787273 -6.441683 5.662695
4.787656 -6.448770 5.662699
4.785699 -6.464202 5.662668
4.785773 -6.529601 5.662675
4.785860 -6.403599 5.662660
4.786431 -6.512910 5.662684
4.786400 -6.443487 5.662691
4.786974 -6.427705 5.662696
4.787006 -6.458583 5.662708
4.787404 -6.410301 5.662696
4.787771 -6.434747 5.662711
4.787678 -6.423992 5.662702
4.785472 -6.460160 5.662638
4.785580 -6.399993 5.662628
4.786034 -6.501195 5.662650
4.786185 -6.401906 5.662640
4.786733 -6.426277 5.662649
4.786843 -6.434699 5.662652
4.787346 -6.384301 5.662644
4.787598 -6.422247 5.662653
4.787873 -6.393723 5.662634
4.788113 -6.404510 5.662641
4.785435 -6.401070 5.662663
4.785633 -6.448942 5.662672
4.785879 -6.366440 5.662658
4.786417 -6.415956 5.662669
4.786617 -6.401753 5.662653
4.787127 -6.354568 5.662641
4.787346 -6.400175 5.662635
4.787843 -6.344886 5.662610
4.788157 -6.373000 5.662617
4.788328 -6.361362 5.662605
4.785512 -6.380492 5.662730
4.785573 -6.355881 5.662725
4.786115 -6.393834 5.662737
4.786340 -6.368552 5.662710
4.786865 -6.332664 5.662695
4.787061 -6.380663 5.662670
4.787585 -6.305814 5.662640
4.787844 -6.344614 5.662632
4.788328 -6.314325 5.662614
4.788449 -6.321364 5.662622
4.785640 -6.353220 5.662822
4.785923 -6.357256 5.662827
4.786096 -6.347025 5.662812
4.786615 -6.323323 5.662797
4.786808 -6.361825 5.662756
4.787306 -6.271723 5.662720
4.787489 -6.325832 5.662683
4.788062 -6.275256 5.662649
4.788147 -6.280540 5.662643
4.788463 -6.286955 5.662642
4.786059 -6.330083 5.662923
4.785929 -6.335385 5.662927
4.786496 -6.324225 5.662921
4.786606 -6.345242 5.662879
4.787096 -6.257224 5.662846
4.787207 -6.330606 5.662792
4.787716 -6.239516 5.662759
4.787789 -6.242249 5.662718
4.788331 -6.243025 5.662718
4.788241 -6.220437 5.662712
4.786032 -6.346110 5.662963
4.786459 -6.347087 5.662960
4.786512 -6.337102 5.662939
4.786866 -6.296139 5.662902
4.787027 -6.329612 5.662844
4.787399 -6.236806 5.662808
4.787524 -6.257710 5.662747
4.787951 -6.238383 5.662734
4.787882 -6.192780 5.662703
4.788283 -6.230024 5.662725
4.786359 -6.333584 5.662965
4.786762 -6.334385 5.662964
4.786522 -6.328449 5.662950
4.786935 -6.313737 5.662915
4.787122 -6.286301 5.662876
4.787379 -6.274002 5.662833
4.787613 -6.245245 5.662794
4.787946 -6.216711 5.662765
4.787738 -6.209142 5.662757
4.788087 -6.204893 5.662755
4.785861 -8.216295 5.671752
4.786128 -8.207853 5.671750
4.785960 -8.234682 5.671746
4.786333 -8.238060 5.671738
4.786486 -8.269895 5.671727
4.786738 -8.288077 5.671717
4.786886 -8.296771 5.671712
4.787290 -8.311738 5.671707
4.786883 -8.310493 5.671703
4.787382 -8.312697 5.671705
4.785644 -8.187192 5.671814
4.785824 -8.220609 5.671826
4.786166 -8.156152 5.671786
4.786174 -8.304903 5.671789
4.786623 -8.252592 5.671767
4.786657 -8.282032 5.671757
4.787044 -8.322678 5.671751
4.787175 -8.296620 5.671740
4.787224 -8.309808 5.671751
4.787659 -8.303041 5.671744
4.785687 -8.277790 5.671782
4.785757 -8.197050 5.671764
4.785882 -8.356944 5.671800
4.786375 -8.214578 5.671754
4.786458 -8.319835 5.671757
4.786903 -8.327344 5.671746
4.787066 -8.305975 5.671735
4.787330 -8.354708 5.671745
4.787827 -8.337312 5.671724
4.787677 -8.345103 5.671737
4.785467 -8.299005 5.671805
4.785561 -8.374738 5.671820
4.786035 -8.245999 5.671781
4.786211 -8.383044 5.671805
4.786693 -8.341743 5.671784
4.786888 -8.350023 5.671788
4.787297 -8.399699 5.671796
4.787641 -8.369916 5.671786
4.787835 -8.390072 5.671804
4.788118 -8.384479 5.671794
4.785427 -8.392944 5.671769
4.785631 -8.331346 5.671756
4.785885 -8.441209 5.671783
4.786392 -8.370426 5.671760
4.786653 -8.406218 5.671781
4.787083 -8.449877 5.671791
4.787393 -8.415238 5.671801
4.787787 -8.464658 5.671827
4.788202 -8.451244 5.671817
4.788332 -8.454037 5.671830
4.785507 -8.435749 5.671696
4.785556 -8.467793 5.671704
4.786126 -8.414929 5.671685
4.786359 -8.460354 5.671723
4.786841 -8.491203 5.671732
4.787103 -8.456483 5.671763
4.787549 -8.528458 5.671796
4.787882 -8.511763 5.671804
4.788308 -8.522793 5.671826
4.788458 -8.530259 5.671819
4.785641 -8.482702 5.671600
4.785921 -8.477254 5.671592
4.786106 -8.495983 5.671617
4.786592 -8.516596 5.671628
4.786842 -8.491888 5.671677
4.787259 -8.583032 5.671715
4.787540 -8.550928 5.671755
4.788006 -8.581913 5.671794
4.788188 -8.612075 5.671800
4.788472 -8.583297 5.671806
4.786057 -8.523754 5.671499
4.785943 -8.515396 5.671496
4.786490 -8.526486 5.671501
4.786639 -8.516582 5.671554
4.787064 -8.608830 5.671588
4.787267 -8.557169 5.671649
4.787668 -8.637512 5.671689
4.787845 -8.688102 5.671727
4.788317 -8.646553 5.671735
4.788249 -8.700873 5.671746
4.786040 -8.499142 5.671461
4.786454 -8.500043 5.671465
4.786524 -8.516624 5.671495
4.786840 -8.567571 5.671535
4.787053 -8.551479 5.671601
4.787352 -8.648329 5.671642
4.787565 -8.663306 5.671705
4.787897 -8.656180 5.671722
4.787912 -8.753482 5.671757
4.788290 -8.684506 5.671732
4.786358 -8.522595 5.671462
4.786758 -8.519989 5.671462
4.786515 -8.531118 5.671477
4.786932 -8.556387 5.671519
4.787111 -8.594875 5.671564
4.787370 -8.622767 5.671612
4.787604 -8.661516 5.671656
4.787940 -8.711053 5.671687
4.787730 -8.720963 5.671694
4.788090 -8.728593 5.671699
4.785853 -3.472993 5.671647
4.786134 -3.478049 5.671648
4.785938 -3.459129 5.671648
4.786332 -3.454528 5.671655
4.786476 -3.427614 5.671655
4.786736 -3.412085 5.671663
4.786877 -3.402324 5.671664
4.787295 -3.388668 5.671669
4.786881 -3.387150 5.671671
4.787391 -3.386080 5.671676
4.785665 -3.494172 5.671627
4.785763 -3.475202 5.671604
4.786263 -3.514440 5.671663
4.786070 -3.400512 5.671621
4.786731 -3.440976 5.671650
4.786555 -3.411803 5.671651
4.787147 -3.381896 5.671651
4.787079 -3.396561 5.671663
4.787317 -3.386776 5.671660
4.787651 -3.391114 5.671672
4.785679 -3.419026 5.671637
4.785844 -3.475766 5.671670
4.785763 -3.359935 5.671615
4.786512 -3.467715 5.671663
4.786324 -3.380609 5.671651
4.787044 -3.379476 5.671654
4.786945 -3.386860 5.671670
4.787466 -3.354038 5.671661
4.787728 -3.359670 5.671683
4.787692 -3.356869 5.671670
4.785481 -3.397884 5.671641
4.785507 -3.342589 5.671624
4.786119 -3.438102 5.671669
4.786116 -3.330194 5.671641
4.786796 -3.365664 5.671654
4.786788 -3.350388 5.671658
4.787403 -3.318473 5.671653
4.787541 -3.331178 5.671665
4.787925 -3.323582 5.671656
4.788113 -3.323270 5.671666
4.785419 -3.322068 5.671660
4.785680 -3.367625 5.671679
4.785809 -3.283921 5.671657
4.786470 -3.340055 5.671672
4.786566 -3.304772 5.671664
4.787177 -3.278221 5.671661
4.787302 -3.293038 5.671663
4.787893 -3.265452 5.671657
4.788124 -3.263208 5.671664
4.788334 -3.267720 5.671653
4.785510 -3.285997 5.671694
4.785506 -3.263307 5.671689
4.786181 -3.302548 5.671705
4.786283 -3.263003 5.671684
4.786917 -3.244679 5.671683
4.787014 -3.258699 5.671674
4.787642 -3.214398 5.671666
4.787785 -3.209997 5.671665
4.788378 -3.216346 5.671658
4.788449 -3.201585 5.671661
4.785625 -3.251025 5.671729
4.785968 -3.252146 5.671737
4.786032 -3.238556 5.671720
4.786669 -3.223322 5.671718
4.786759 -3.231296 5.671698
4.787365 -3.171198 5.671693
4.787432 -3.177222 5.671673
4.788133 -3.170968 5.671672
4.788095 -3.128187 5.671664
4.788464 -3.161609 5.671656
4.786054 -3.217369 5.671764
4.785846 -3.228960 5.671758
4.786582 -3.215116 5.671752
4.786533 -3.216660 5.671732
4.787167 -3.151610 5.671727
4.787130 -3.170821 5.671695
4.787809 -3.126392 5.671698
4.787679 -3.059270 5.671676
4.788421 -3.113207 5.671677
4.788244 -3.057630 5.671679
4.786024 -3.245175 5.671773
4.786513 -3.239862 5.671769
4.786459 -3.226423 5.671754
4.786923 -3.182013 5.671742
4.786982 -3.181274 5.671708
4.787468 -3.115130 5.671713
4.787451 -3.082007 5.671679
4.788050 -3.104620 5.671686
4.787804 -3.011116 5.671676
4.788274 -3.075552 5.671673
4.786353 -3.219637 5.671769
4.786755 -3.223802 5.671765
4.786542 -3.210126 5.671758
4.786937 -3.185561 5.671743
4.787139 -3.152068 5.671728
4.787380 -3.123397 5.671715
4.787635 -3.091911 5.671702
4.787926 -3.047223 5.671692
4.787765 -3.040312 5.671689
4.788094 -3.033149 5.671690
4.785857 -6.390855 5.663231
4.786128 -6.390672 5.663229
4.785957 -6.392403 5.663232
4.786331 -6.393693 5.663232
4.786485 -6.397113 5.663235
4.786737 -6.399318 5.663236
4.786885 -6.400769 5.663238
4.787290 -6.402546 5.663239
4.786888 -6.402742 5.663240
4.787386 -6.402964 5.663239
4.785648 -6.387167 5.663212
4.785831 -6.387435 5.663222
4.786179 -6.386688 5.663209
4.786146 -6.398582 5.663226
4.786660 -6.394842 5.663222
4.786623 -6.398685 5.663224
4.787079 -6.401923 5.663229
4.787148 -6.401379 5.663228
4.787260 -6.401064 5.663228
4.787655 -6.400642 5.663227
4.785688 -6.394740 5.663223
4.785766 -6.389466 5.663214
4.785859 -6.400959 5.663228
4.786419 -6.389735 5.663221
4.786415 -6.400195 5.663226
4.786951 -6.400265 5.663229
4.787034 -6.400428 5.663228
4.787369 -6.403205 5.663230
4.787803 -6.403972 5.663229
4.787683 -6.403756 5.663231
4.785470 -6.394719 5.663211
4.785561 -6.400663 5.663215
4.786056 -6.390415 5.663210
4.786183 -6.403212 5.663214
4.786727 -6.399062 5.663214
4.786861 -6.401751 5.663213
4.787332 -6.404920 5.663213
4.787617 -6.404709 5.663212
4.787861 -6.404199 5.663212
4.788116 -6.404870 5.663211
4.785427 -6.401044 5.663218
4.785645 -6.395985 5.663218
4.785864 -6.405648 5.663218
4.786416 -6.399205 5.663217
4.786625 -6.404183 5.663214
4.787111 -6.406900 5.663211
4.787369 -6.406400 5.663207
4.787817 -6.408600 5.663202
4.788178 -6.410134 5.663202
4.788333 -6.408916 5.663203
4.785509 -6.402833 5.663235
4.785547 -6.404850 5.663233
4.786140 -6.401044 5.663234
4.786336 -6.405870 5.663228
4.786859 -6.407983 5.663223
4.787076 -6.407586 5.663216
4.787574 -6.411963 5.663207
4.787855 -6.414396 5.663205
4.788326 -6.412043 5.663202
4.788456 -6.414842 5.663203
4.785639 -6.403806 5.663255
4.785933 -6.404685 5.663256
4.786088 -6.404935 5.663253
4.786612 -6.407737 5.663248
4.786820 -6.407503 5.663238
4.787288 -6.414131 5.663226
4.787507 -6.415436 5.663217
4.788048 -6.414450 5.663207
4.788153 -6.421611 5.663205
4.788471 -6.416572 5.663206
4.786056 -6.405383 5.663280
4.785911 -6.402027 5.663280
4.786516 -6.406478 5.663279
4.786613 -6.405300 5.663270
4.787090 -6.413511 5.663256
4.787228 -6.413178 5.663249
4.787711 -6.416860 5.663234
4.787788 -6.428510 5.663226
4.788354 -6.419525 5.663227
4.788250 -6.427946 5.663223
4.786035 -6.398910 5.663286
4.786463 -6.401022 5.663285
4.786510 -6.400289 5.663281
4.786859 -6.407887 5.663269
4.787036 -6.408642 5.663261
4.787389 -6.416099 5.663242
4.787528 -6.422721 5.663234
4.787954 -6.417679 5.663227
4.787871 -6.431566 5.663217
4.788285 -6.422608 5.663226
4.786355 -6.401711 5.663288
4.786752 -6.400773 5.663288
4.786524 -6.403174 5.663286
4.786930 -6.406497 5.663278
4.787119 -6.411124 5.663267
4.787371 -6.415534 5.663256
4.787613 -6.419632 5.663246
4.787934 -6.426092 5.663239
4.787743 -6.426764 5.663237
4.788093 -6.428098 5.663237
