6.290422 2.899270 -5.474385
6.292017 2.898636 -5.474385
6.291051 2.901148 -5.474383
6.293783 2.905496 -5.474376
6.295474 2.911199 -5.474367
6.297649 2.918144 -5.474360
6.299468 2.924053 -5.474350
6.302065 2.932585 -5.474345
6.301166 2.935881 -5.474341
6.302738 2.936226 -5.474341
6.289168 2.897905 -5.474389
6.289983 2.900841 -5.474387
6.292102 2.896234 -5.474386
6.293077 2.906400 -5.474374
6.295624 2.910692 -5.474365
6.297634 2.915646 -5.474353
6.299346 2.928351 -5.474345
6.302212 2.921673 -5.474339
6.301852 2.936661 -5.474338
6.304023 2.928674 -5.474340
6.289536 2.901586 -5.474381
6.289564 2.897645 -5.474382
6.290864 2.904073 -5.474378
6.293423 2.903177 -5.474372
6.295327 2.908062 -5.474360
6.297405 2.916615 -5.474351
6.300168 2.914469 -5.474341
6.300946 2.934612 -5.474336
6.304562 2.926069 -5.474334
6.303379 2.934480 -5.474334
6.288362 2.895143 -5.474365
6.289012 2.897306 -5.474364
6.290903 2.894872 -5.474364
6.292842 2.898597 -5.474357
6.295213 2.902629 -5.474348
6.297619 2.903184 -5.474339
6.299492 2.912873 -5.474333
6.302570 2.905984 -5.474326
6.303009 2.916422 -5.474324
6.304493 2.909941 -5.474324
6.287994 2.887249 -5.474347
6.288558 2.885440 -5.474347
6.290462 2.887913 -5.474346
6.292761 2.889443 -5.474341
6.295148 2.890603 -5.474335
6.297267 2.896201 -5.474331
6.299980 2.894420 -5.474326
6.301682 2.903636 -5.474323
6.304230 2.898320 -5.474320
6.304484 2.902738 -5.474322
6.287945 2.874792 -5.474334
6.288363 2.875974 -5.474333
6.290469 2.875496 -5.474334
6.292685 2.877561 -5.474330
6.294935 2.880874 -5.474327
6.297403 2.881199 -5.474325
6.299478 2.885928 -5.474322
6.302008 2.883857 -5.474318
6.303654 2.887878 -5.474318
6.304321 2.885620 -5.474319
6.288119 2.863476 -5.474325
6.288932 2.861923 -5.474325
6.290509 2.865382 -5.474325
6.292611 2.866377 -5.474324
6.295072 2.868476 -5.474323
6.297033 2.871595 -5.474323
6.299542 2.872080 -5.474322
6.301463 2.874846 -5.474320
6.302990 2.872501 -5.474323
6.303835 2.873539 -5.474326
6.289186 2.851165 -5.474326
6.288932 2.853010 -5.474325
6.290681 2.850665 -5.474326
6.292964 2.856680 -5.474326
6.294748 2.858533 -5.474327
6.297240 2.861348 -5.474329
6.298981 2.863675 -5.474329
6.301054 2.863758 -5.474330
6.302874 2.866482 -5.474330
6.302546 2.865503 -5.474335
6.288690 2.841988 -5.474323
6.289632 2.839997 -5.474323
6.291355 2.848591 -5.474324
6.292644 2.849592 -5.474325
6.295195 2.855298 -5.474327
6.296772 2.857674 -5.474329
6.299108 2.860097 -5.474332
6.300639 2.861879 -5.474331
6.301495 2.857498 -5.474336
6.302878 2.858154 -5.474334
6.289903 2.844551 -5.474329
6.291323 2.843974 -5.474329
6.290513 2.846596 -5.474328
6.293201 2.850992 -5.474329
6.294894 2.854318 -5.474331
6.297015 2.857629 -5.474333
6.298638 2.859854 -5.474335
6.301189 2.861264 -5.474337
6.300098 2.861521 -5.474337
6.301678 2.861586 -5.474337
6.290422 1.709568 -5.483981
6.292025 1.714239 -5.483982
6.291070 1.692324 -5.483965
6.293800 1.656638 -5.483948
6.295496 1.614942 -5.483930
6.297660 1.566692 -5.483910
6.299484 1.526333 -5.483904
6.302062 1.472259 -5.483882
6.301179 1.455848 -5.483898
6.302737 1.451554 -5.483893
6.289165 1.733297 -5.483991
6.290029 1.727049 -5.483997
6.292076 1.716493 -5.483967
6.293136 1.657131 -5.483960
6.295594 1.620024 -5.483922
6.297700 1.579901 -5.483924
6.299298 1.506182 -5.483876
6.302288 1.534356 -5.483918
6.301814 1.449624 -5.483877
6.304030 1.514870 -5.483889
6.289545 1.688668 -5.483970
6.289527 1.697493 -5.483960
6.290919 1.679974 -5.483968
6.293365 1.664894 -5.483933
6.295382 1.634064 -5.483932
6.297332 1.577665 -5.483889
6.300231 1.583991 -5.483907
6.300866 1.462855 -5.483864
6.304614 1.520652 -5.483888
6.303375 1.457730 -5.483884
6.288366 1.709232 -5.483932
6.289063 1.704728 -5.483937
6.290873 1.699893 -5.483918
6.292901 1.683514 -5.483920
6.295186 1.649934 -5.483888
6.297686 1.645513 -5.483891
6.299446 1.583121 -5.483861
6.302628 1.627534 -5.483873
6.302969 1.555361 -5.483859
6.304491 1.605007 -5.483851
6.288001 1.736000 -5.483902
6.288536 1.740006 -5.483893
6.290504 1.735739 -5.483901
6.292731 1.715329 -5.483879
6.295196 1.711683 -5.483878
6.297239 1.671781 -5.483860
6.300018 1.682631 -5.483858
6.301632 1.621020 -5.483848
6.304257 1.658428 -5.483835
6.304476 1.627580 -5.483839
6.287942 1.790838 -5.483875
6.288406 1.789410 -5.483877
6.290433 1.781390 -5.483860
6.292725 1.777388 -5.483865
6.294912 1.749790 -5.483850
6.297453 1.749699 -5.483847
6.299442 1.717543 -5.483839
6.302042 1.727667 -5.483821
6.303623 1.700252 -5.483834
6.304320 1.714182 -5.483818
6.288120 1.842058 -5.483857
6.288897 1.845842 -5.483844
6.290540 1.839988 -5.483848
6.292562 1.823599 -5.483840
6.295099 1.817393 -5.483835
6.297000 1.793554 -5.483833
6.299573 1.786233 -5.483816
6.301421 1.772741 -5.483836
6.303018 1.774789 -5.483798
6.303829 1.772638 -5.483815
6.289181 1.908939 -5.483842
6.288983 1.906824 -5.483848
6.290629 1.902232 -5.483838
6.293005 1.883983 -5.483834
6.294707 1.862542 -5.483832
6.297287 1.846247 -5.483820
6.298943 1.835176 -5.483837
6.301105 1.812286 -5.483793
6.302837 1.813386 -5.483838
6.302553 1.809822 -5.483823
6.288694 1.951923 -5.483843
6.289600 1.958195 -5.483835
6.291378 1.935455 -5.483827
6.292603 1.913911 -5.483829
6.295214 1.887971 -5.483819
6.296736 1.870388 -5.483831
6.299137 1.841530 -5.483803
6.300596 1.849055 -5.483840
6.301528 1.834585 -5.483802
6.302871 1.839450 -5.483808
6.289901 1.951423 -5.483842
6.291320 1.953215 -5.483835
6.290503 1.940841 -5.483832
6.293193 1.915518 -5.483826
6.294883 1.894319 -5.483824
6.297013 1.872145 -5.483821
6.298631 1.855993 -5.483823
6.301193 1.840222 -5.483818
6.300093 1.835565 -5.483815
6.301679 1.835716 -5.483816
6.290424 4.712470 -5.479454
6.292026 4.708868 -5.479451
6.291051 4.728758 -5.479470
6.293789 4.765813 -5.479507
6.295475 4.809701 -5.479555
6.297646 4.862936 -5.479603
6.299455 4.908242 -5.479645
6.302072 4.970321 -5.479679
6.301145 4.990394 -5.479677
6.302737 4.994911 -5.479682
6.289168 4.691705 -5.479440
6.289993 4.698918 -5.479437
6.292096 4.702076 -5.479470
6.293065 4.762621 -5.479515
6.295624 4.803391 -5.479571
6.297595 4.846410 -5.479612
6.299368 4.927859 -5.479676
6.302135 4.901665 -5.479667
6.301911 5.001116 -5.479725
6.304017 4.931107 -5.479685
6.289541 4.715646 -5.479482
6.289576 4.706615 -5.479490
6.290861 4.724775 -5.479500
6.293438 4.741628 -5.479547
6.295304 4.772742 -5.479584
6.297436 4.835031 -5.479639
6.300112 4.831844 -5.479657
6.301018 4.961986 -5.479725
6.304492 4.904433 -5.479692
6.303384 4.969374 -5.479728
6.288361 4.667194 -5.479572
6.289017 4.670647 -5.479573
6.290905 4.676670 -5.479594
6.292828 4.692114 -5.479617
6.295232 4.730422 -5.479664
6.297592 4.735795 -5.479692
6.299523 4.802352 -5.479741
6.302504 4.759751 -5.479756
6.303051 4.834239 -5.479792
6.304487 4.783781 -5.479775
6.287989 4.606082 -5.479669
6.288566 4.602541 -5.479671
6.290457 4.605655 -5.479672
6.292779 4.630019 -5.479704
6.295144 4.633175 -5.479725
6.297308 4.677422 -5.479756
6.299949 4.668328 -5.479775
6.301708 4.732061 -5.479801
6.304200 4.696841 -5.479803
6.304482 4.727071 -5.479806
6.287935 4.515733 -5.479744
6.288357 4.516766 -5.479736
6.290478 4.527246 -5.479743
6.292664 4.531447 -5.479757
6.294956 4.563526 -5.479776
6.297389 4.563935 -5.479788
6.299497 4.597948 -5.479800
6.301972 4.589858 -5.479821
6.303667 4.615296 -5.479826
6.304323 4.602584 -5.479831
6.288109 4.432011 -5.479790
6.288950 4.427608 -5.479787
6.290486 4.435392 -5.479782
6.292618 4.454725 -5.479791
6.295050 4.461588 -5.479797
6.297062 4.488767 -5.479796
6.299528 4.497342 -5.479806
6.301474 4.510223 -5.479799
6.303004 4.508637 -5.479822
6.303842 4.509771 -5.479814
6.289183 4.332128 -5.479788
6.288907 4.335133 -5.479785
6.290699 4.340298 -5.479783
6.292928 4.363873 -5.479784
6.294763 4.389346 -5.479778
6.297220 4.406763 -5.479782
6.298999 4.418709 -5.479768
6.301060 4.441295 -5.479791
6.302857 4.439983 -5.479767
6.302550 4.443152 -5.479783
6.288688 4.270383 -5.479803
6.289666 4.262958 -5.479804
6.291338 4.294833 -5.479802
6.292665 4.318736 -5.479791
6.295184 4.348589 -5.479790
6.296794 4.369352 -5.479779
6.299114 4.399133 -5.479788
6.300632 4.391591 -5.479767
6.301531 4.398995 -5.479793
6.302884 4.395165 -5.479783
6.289905 4.270497 -5.479770
6.291331 4.267967 -5.479774
6.290508 4.284413 -5.479773
6.293199 4.315442 -5.479767
6.294895 4.340267 -5.479765
6.297021 4.364766 -5.479765
6.298640 4.382261 -5.479763
6.301195 4.396766 -5.479765
6.300097 4.399512 -5.479763
6.301675 4.399710 -5.479761
6.290425 3.949034 -5.463229
6.292025 3.951025 -5.463232
6.291056 3.938964 -5.463213
6.293792 3.915677 -5.463177
6.295480 3.889838 -5.463138
6.297657 3.857649 -5.463095
6.299463 3.830502 -5.463062
6.302081 3.793670 -5.463026
6.301150 3.782797 -5.463025
6.302736 3.779546 -5.463016
6.289167 3.956563 -5.463240
6.290027 3.952598 -5.463242
6.292071 3.946287 -5.463211
6.293103 3.915958 -5.463175
6.295618 3.888757 -5.463119
6.297619 3.862883 -5.463087
6.299385 3.817769 -5.463014
6.302132 3.825960 -5.463036
6.301949 3.772793 -5.462976
6.304011 3.813952 -5.463002
6.289548 3.938913 -5.463194
6.289542 3.941149 -5.463191
6.290898 3.935312 -5.463189
6.293401 3.917628 -5.463142
6.295320 3.902255 -5.463117
6.297416 3.864453 -5.463050
6.300105 3.862313 -5.463038
6.301047 3.792503 -5.462969
6.304450 3.819521 -5.462995
6.303385 3.784729 -5.462978
6.288367 3.953238 -5.463107
6.289053 3.954137 -5.463107
6.290876 3.944401 -5.463085
6.292860 3.939636 -5.463074
6.295211 3.912885 -5.463027
6.297605 3.909920 -5.463004
6.299528 3.872457 -5.462952
6.302509 3.892517 -5.462945
6.303066 3.854632 -5.462918
6.304480 3.881040 -5.462916
6.288001 3.977077 -5.463021
6.288548 3.977086 -5.463009
6.290478 3.978608 -5.463007
6.292757 3.959477 -5.462985
6.295145 3.959895 -5.462974
6.297284 3.931998 -5.462941
6.299948 3.935487 -5.462919
6.301725 3.901144 -5.462904
6.304186 3.916779 -5.462898
6.304477 3.902306 -5.462900
6.287943 4.015259 -5.462958
6.288387 4.015623 -5.462950
6.290452 4.006863 -5.462936
6.292695 4.006651 -5.462941
6.294935 3.984826 -5.462928
6.297397 3.985467 -5.462916
6.299484 3.965499 -5.462895
6.301988 3.967336 -5.462885
6.303652 3.955902 -5.462895
6.304314 3.960691 -5.462884
6.288118 4.048098 -5.462920
6.288922 4.050969 -5.462911
6.290506 4.048158 -5.462913
6.292603 4.035477 -5.462916
6.295061 4.033321 -5.462921
6.297036 4.015505 -5.462919
6.299531 4.009947 -5.462901
6.301458 4.002911 -5.462921
6.303004 4.000416 -5.462902
6.303828 4.001009 -5.462914
6.289185 4.096902 -5.462928
6.288950 4.094756 -5.462923
6.290671 4.090107 -5.462923
6.292967 4.077584 -5.462936
6.294748 4.060688 -5.462949
6.297246 4.052077 -5.462946
6.298967 4.044179 -5.462959
6.301092 4.029666 -5.462936
6.302816 4.031816 -5.462967
6.302546 4.029697 -5.462958
6.288691 4.117294 -5.462911
6.289634 4.122272 -5.462909
6.291346 4.108344 -5.462916
6.292643 4.094454 -5.462932
6.295193 4.078941 -5.462939
6.296766 4.065190 -5.462957
6.299128 4.047774 -5.462947
6.300596 4.051684 -5.462972
6.301547 4.043967 -5.462953
6.302875 4.044613 -5.462958
6.289905 4.120416 -5.462943
6.291323 4.120700 -5.462945
6.290505 4.112692 -5.462949
6.293199 4.093735 -5.462954
6.294892 4.079410 -5.462960
6.297020 4.065346 -5.462968
6.298633 4.054190 -5.462978
6.301202 4.046459 -5.462982
6.300091 4.043266 -5.462980
6.301676 4.044140 -5.462975
6.290426 4.546499 -5.472685
6.292028 4.546875 -5.472685
6.291051 4.550591 -5.472698
6.293793 4.562998 -5.472726
6.295476 4.573203 -5.472762
6.297658 4.587861 -5.472800
6.299453 4.600234 -5.472838
6.302092 4.615489 -5.472865
6.301133 4.620228 -5.472875
6.302736 4.621689 -5.472880
6.289168 4.550279 -5.472677
6.290030 4.549572 -5.472674
6.292070 4.552019 -5.472696
6.293093 4.558377 -5.472738
6.295639 4.573935 -5.472779
6.297582 4.584542 -5.472822
6.299442 4.600502 -5.472867
6.302034 4.605296 -5.472873
6.302041 4.624091 -5.472916
6.304003 4.611520 -5.472878
6.289548 4.543704 -5.472721
6.289548 4.547119 -5.472719
6.290891 4.543584 -5.472728
6.293425 4.561265 -5.472762
6.295298 4.562028 -5.472799
6.297473 4.580111 -5.472843
6.300033 4.586416 -5.472868
6.301158 4.606583 -5.472919
6.304350 4.605276 -5.472890
6.303393 4.613468 -5.472919
6.288368 4.541687 -5.472806
6.289054 4.536203 -5.472800
6.290881 4.547921 -5.472808
6.292846 4.542020 -5.472833
6.295240 4.559541 -5.472866
6.297566 4.559447 -5.472899
6.299579 4.572401 -5.472937
6.302423 4.571879 -5.472952
6.303131 4.579048 -5.472980
6.304476 4.573912 -5.472957
6.288001 4.526894 -5.472890
6.288555 4.529794 -5.472884
6.290464 4.523867 -5.472883
6.292774 4.538603 -5.472905
6.295129 4.533853 -5.472925
6.297320 4.548127 -5.472950
6.299903 4.548855 -5.472959
6.301775 4.557850 -5.472985
6.304144 4.558557 -5.472979
6.304481 4.559949 -5.472982
6.287946 4.511240 -5.472943
6.288378 4.510488 -5.472940
6.290463 4.516610 -5.472940
6.292676 4.513468 -5.472949
6.294964 4.526500 -5.472959
6.297375 4.524066 -5.472967
6.299517 4.531823 -5.472968
6.301955 4.534231 -5.472987
6.303671 4.533705 -5.472998
6.304315 4.534919 -5.472993
6.288116 4.499066 -5.472967
6.288938 4.496173 -5.472968
6.290483 4.498425 -5.472967
6.292627 4.503497 -5.472964
6.295048 4.502066 -5.472965
6.297067 4.511445 -5.472963
6.299517 4.513199 -5.472954
6.301475 4.515541 -5.472964
6.303009 4.518636 -5.472965
6.303828 4.516934 -5.472960
6.289188 4.472123 -5.472950
6.288927 4.476362 -5.472958
6.290698 4.475234 -5.472952
6.292939 4.483328 -5.472944
6.294772 4.490928 -5.472937
6.297223 4.492085 -5.472929
6.298980 4.496315 -5.472919
6.301100 4.500023 -5.472916
6.302791 4.498527 -5.472916
6.302548 4.498987 -5.472921
6.288687 4.470568 -5.472967
6.289657 4.467511 -5.472965
6.291324 4.474959 -5.472958
6.292664 4.474273 -5.472943
6.295177 4.479778 -5.472932
6.296778 4.486395 -5.472923
6.299131 4.491599 -5.472912
6.300577 4.493941 -5.472911
6.301580 4.495659 -5.472913
6.302875 4.495254 -5.472906
6.289907 4.461461 -5.472934
6.291326 4.462698 -5.472933
6.290505 4.464494 -5.472928
6.293198 4.473363 -5.472915
6.294890 4.478455 -5.472903
6.297018 4.483337 -5.472897
6.298627 4.488281 -5.472898
6.301203 4.489444 -5.472900
6.300085 4.490979 -5.472892
6.301673 4.489950 -5.472885
6.290427 4.862108 -5.453818
6.292029 4.860427 -5.453825
6.291048 4.861995 -5.453814
6.293794 4.858217 -5.453785
6.295476 4.861847 -5.453750
6.297662 4.863048 -5.453713
6.299448 4.864511 -5.453681
6.302103 4.870213 -5.453652
6.301120 4.872416 -5.453654
6.302735 4.872445 -5.453650
6.289163 4.846974 -5.453836
6.290034 4.850858 -5.453838
6.292063 4.843081 -5.453814
6.293092 4.862396 -5.453780
6.295648 4.854675 -5.453736
6.297561 4.857784 -5.453708
6.299477 4.871613 -5.453652
6.301968 4.848673 -5.453666
6.302098 4.871924 -5.453620
6.303995 4.858706 -5.453642
6.289551 4.856833 -5.453798
6.289540 4.847075 -5.453790
6.290900 4.861717 -5.453785
6.293432 4.838524 -5.453750
6.295288 4.852687 -5.453725
6.297500 4.852066 -5.453679
6.299988 4.840888 -5.453670
6.301223 4.871870 -5.453613
6.304288 4.846340 -5.453631
6.303397 4.863957 -5.453615
6.288362 4.822645 -5.453728
6.289057 4.832437 -5.453720
6.290878 4.816020 -5.453701
6.292845 4.833508 -5.453691
6.295248 4.822495 -5.453657
6.297546 4.826270 -5.453639
6.299601 4.836430 -5.453601
6.302376 4.818053 -5.453593
6.303161 4.841199 -5.453570
6.304472 4.826514 -5.453571
6.288000 4.803060 -5.453655
6.288549 4.797019 -5.453641
6.290471 4.807570 -5.453637
6.292776 4.795263 -5.453626
6.295122 4.805267 -5.453617
6.297332 4.802798 -5.453591
6.299881 4.798632 -5.453574
6.301797 4.813208 -5.453565
6.304127 4.797736 -5.453562
6.304484 4.808349 -5.453562
6.287943 4.771190 -5.453598
6.288382 4.772094 -5.453595
6.290462 4.768646 -5.453591
6.292673 4.776290 -5.453596
6.294963 4.770741 -5.453588
6.297366 4.775733 -5.453576
6.299524 4.778531 -5.453559
6.301947 4.772640 -5.453555
6.303674 4.782224 -5.453560
6.304318 4.776236 -5.453553
6.288119 4.738587 -5.453566
6.288941 4.742166 -5.453571
6.290488 4.742095 -5.453576
6.292625 4.743947 -5.453580
6.295041 4.750058 -5.453584
6.297070 4.748035 -5.453585
6.299521 4.750217 -5.453572
6.301470 4.750360 -5.453587
6.303026 4.746943 -5.453579
6.303831 4.747528 -5.453586
6.289191 4.723635 -5.453580
6.288929 4.717416 -5.453579
6.290694 4.722556 -5.453587
6.292935 4.722296 -5.453594
6.294768 4.722944 -5.453610
6.297226 4.729546 -5.453612
6.298971 4.727939 -5.453620
6.301128 4.733603 -5.453610
6.302761 4.732622 -5.453626
6.302550 4.735689 -5.453626
6.288689 4.687921 -5.453573
6.289659 4.690550 -5.453576
6.291330 4.697262 -5.453581
6.292663 4.708969 -5.453596
6.295180 4.715231 -5.453605
6.296773 4.715361 -5.453622
6.299151 4.720579 -5.453620
6.300547 4.713195 -5.453634
6.301614 4.711094 -5.453630
6.302877 4.707689 -5.453631
6.289909 4.702726 -5.453601
6.291330 4.698966 -5.453601
6.290501 4.705339 -5.453606
6.293197 4.706591 -5.453613
6.294885 4.711087 -5.453619
6.297020 4.715115 -5.453626
6.298625 4.715582 -5.453639
6.301211 4.720486 -5.453648
6.300079 4.718109 -5.453645
6.301671 4.720459 -5.453639
6.290428 4.411797 -5.458644
6.292035 4.416348 -5.458647
6.291048 4.406582 -5.458663
6.293798 4.402235 -5.458691
6.295475 4.384583 -5.458721
6.297668 4.368759 -5.458751
6.299446 4.354750 -5.458776
6.302111 4.330600 -5.458800
6.301117 4.323168 -5.458807
6.302735 4.321618 -5.458812
6.289168 4.439076 -5.458626
6.290037 4.429358 -5.458624
6.292075 4.435233 -5.458648
6.293090 4.391186 -5.458681
6.295657 4.391718 -5.458718
6.297553 4.373828 -5.458754
6.299512 4.335959 -5.458795
6.301927 4.369974 -5.458794
6.302164 4.321551 -5.458829
6.303993 4.357371 -5.458796
6.289549 4.400507 -5.458671
6.289539 4.416951 -5.458671
6.290886 4.391904 -5.458672
6.293427 4.419681 -5.458699
6.295272 4.389231 -5.458729
6.297513 4.375438 -5.458773
6.299960 4.388838 -5.458794
6.301291 4.316652 -5.458838
6.304231 4.359312 -5.458812
6.303404 4.321754 -5.458836
6.288367 4.444495 -5.458735
6.289061 4.429500 -5.458725
6.290881 4.449077 -5.458731
6.292843 4.418717 -5.458747
6.295254 4.424382 -5.458778
6.297543 4.415758 -5.458809
6.299646 4.385600 -5.458840
6.302353 4.419493 -5.458854
6.303210 4.373814 -5.458877
6.304471 4.404499 -5.458857
6.287999 4.464286 -5.458798
6.288550 4.473275 -5.458792
6.290467 4.457912 -5.458789
6.292780 4.468163 -5.458807
6.295115 4.452002 -5.458827
6.297345 4.443996 -5.458846
6.299879 4.450374 -5.458854
6.301840 4.415293 -5.458877
6.304106 4.441168 -5.458871
6.304483 4.421605 -5.458872
6.287947 4.510252 -5.458842
6.288388 4.509797 -5.458838
6.290470 4.509872 -5.458840
6.292678 4.498199 -5.458845
6.294966 4.496903 -5.458858
6.297360 4.488647 -5.458862
6.299539 4.476165 -5.458864
6.301940 4.483126 -5.458877
6.303680 4.467548 -5.458889
6.304314 4.475625 -5.458881
6.288116 4.553904 -5.458864
6.288936 4.548643 -5.458866
6.290485 4.550341 -5.458866
6.292624 4.540747 -5.458861
6.295030 4.530700 -5.458866
6.297061 4.525666 -5.458865
6.299509 4.518139 -5.458856
6.301464 4.516648 -5.458863
6.303027 4.514625 -5.458859
6.303823 4.517091 -5.458858
6.289194 4.580633 -5.458865
6.288938 4.590868 -5.458871
6.290699 4.577653 -5.458863
6.292937 4.575425 -5.458857
6.294768 4.565712 -5.458852
6.297225 4.551349 -5.458847
6.298956 4.550643 -5.458840
6.301148 4.530466 -5.458828
6.302727 4.538356 -5.458837
6.302550 4.528840 -5.458839
6.288684 4.630342 -5.458873
6.289647 4.628472 -5.458871
6.291320 4.617657 -5.458872
6.292657 4.591056 -5.458856
6.295172 4.575812 -5.458848
6.296758 4.568584 -5.458841
6.299157 4.550801 -5.458827
6.300511 4.565943 -5.458829
6.301641 4.557269 -5.458825
6.302871 4.564475 -5.458825
6.289909 4.608110 -5.458857
6.291325 4.613396 -5.458859
6.290500 4.601371 -5.458857
6.293197 4.591222 -5.458849
6.294886 4.577751 -5.458837
6.297022 4.564917 -5.458829
6.298623 4.558198 -5.458827
6.301217 4.545992 -5.458827
6.300074 4.546652 -5.458822
6.301670 4.543773 -5.458819
6.290430 6.193488 -5.452286
6.292038 6.186203 -5.452290
6.291041 6.203793 -5.452279
6.293794 6.216106 -5.452255
6.295467 6.248745 -5.452222
6.297659 6.279246 -5.452186
6.299431 6.306655 -5.452160
6.302115 6.349127 -5.452135
6.301094 6.364022 -5.452141
6.302734 6.366018 -5.452143
6.289162 6.151277 -5.452317
6.290022 6.166356 -5.452326
6.292067 6.153574 -5.452300
6.293062 6.231195 -5.452269
6.295657 6.234350 -5.452226
6.297505 6.268896 -5.452202
6.299532 6.332751 -5.452153
6.301856 6.282816 -5.452170
6.302194 6.360320 -5.452138
6.303990 6.306181 -5.452163
6.289553 6.210306 -5.452282
6.289534 6.184237 -5.452275
6.290883 6.225283 -5.452277
6.293442 6.185252 -5.452238
6.295252 6.236063 -5.452216
6.297548 6.262699 -5.452178
6.299914 6.246941 -5.452170
6.301338 6.363711 -5.452127
6.304198 6.304931 -5.452145
6.303404 6.361029 -5.452122
6.288362 6.142255 -5.452238
6.289044 6.163780 -5.452242
6.290873 6.136234 -5.452227
6.292823 6.183340 -5.452212
6.295272 6.179893 -5.452182
6.297504 6.195003 -5.452165
6.299659 6.245266 -5.452133
6.302305 6.195500 -5.452125
6.303228 6.263266 -5.452102
6.304468 6.217846 -5.452108
6.288001 6.108813 -5.452187
6.288538 6.095865 -5.452180
6.290467 6.117390 -5.452182
6.292787 6.106399 -5.452162
6.295111 6.130595 -5.452152
6.297359 6.147631 -5.452132
6.299855 6.139499 -5.452115
6.301842 6.194878 -5.452104
6.304105 6.160024 -5.452104
6.304480 6.187640 -5.452099
6.287943 6.033146 -5.452140
6.288373 6.033049 -5.452142
6.290466 6.036125 -5.452135
6.292662 6.052973 -5.452128
6.294978 6.059843 -5.452121
6.297343 6.072547 -5.452111
6.299546 6.093721 -5.452098
6.301929 6.086438 -5.452088
6.303683 6.105422 -5.452085
6.304318 6.096464 -5.452082
6.288119 5.961965 -5.452107
6.288944 5.970365 -5.452104
6.290491 5.967491 -5.452100
6.292636 5.984917 -5.452099
6.295034 6.000226 -5.452099
6.297078 6.011267 -5.452103
6.299521 6.025095 -5.452091
6.301451 6.025798 -5.452096
6.303059 6.034668 -5.452090
6.303828 6.026199 -5.452088
6.289193 5.911020 -5.452085
6.288917 5.895560 -5.452082
6.290699 5.916766 -5.452088
6.292922 5.923415 -5.452082
6.294775 5.941687 -5.452094
6.297221 5.965569 -5.452095
6.298954 5.967353 -5.452099
6.301176 6.003084 -5.452093
6.302707 5.985156 -5.452092
6.302555 6.004098 -5.452095
6.288685 5.829954 -5.452084
6.289668 5.833769 -5.452086
6.291340 5.855009 -5.452074
6.292674 5.894831 -5.452085
6.295187 5.921728 -5.452087
6.296769 5.935506 -5.452099
6.299182 5.966626 -5.452097
6.300489 5.944277 -5.452102
6.301684 5.961138 -5.452099
6.302878 5.944699 -5.452094
6.289912 5.861638 -5.452083
6.291344 5.853583 -5.452079
6.290500 5.873408 -5.452080
6.293208 5.892318 -5.452083
6.294890 5.915693 -5.452084
6.297030 5.938247 -5.452087
6.298621 5.951071 -5.452092
6.301222 5.972058 -5.452094
6.300070 5.971062 -5.452091
6.301668 5.975755 -5.452091
6.290431 2.450803 -5.438967
6.292045 2.458628 -5.438965
6.291047 2.438107 -5.438975
6.293809 2.422231 -5.438985
6.295475 2.390225 -5.438997
6.297678 2.361590 -5.439009
6.299442 2.336821 -5.439013
6.302123 2.301303 -5.439023
6.301102 2.290636 -5.439019
6.302731 2.288006 -5.439015
6.289158 2.486719 -5.438948
6.290016 2.475095 -5.438943
6.292102 2.474899 -5.438963
6.293080 2.403506 -5.438965
6.295671 2.397244 -5.438988
6.297539 2.363141 -5.438994
6.299541 2.310304 -5.439013
6.301865 2.350594 -5.439005
6.302214 2.297797 -5.439010
6.303993 2.342192 -5.438987
6.289552 2.400961 -5.438965
6.289546 2.421686 -5.438970
6.290869 2.388748 -5.438957
6.293437 2.416778 -5.438985
6.295269 2.370430 -5.438986
6.297527 2.346440 -5.439006
6.299927 2.356920 -5.439009
6.301342 2.260665 -5.439022
6.304192 2.303176 -5.438996
6.303407 2.257892 -5.439014
6.288367 2.412996 -5.438975
6.289050 2.396318 -5.438967
6.290901 2.414229 -5.438980
6.292845 2.374015 -5.438981
6.295272 2.373810 -5.438995
6.297534 2.359530 -5.439002
6.299656 2.316234 -5.439016
6.302305 2.357241 -5.439011
6.303230 2.304979 -5.439023
6.304466 2.341727 -5.439011
6.288001 2.389979 -5.438987
6.288551 2.399387 -5.438988
6.290464 2.383753 -5.438983
6.292783 2.389168 -5.438998
6.295122 2.368962 -5.438999
6.297350 2.352401 -5.439009
6.299861 2.358238 -5.439016
6.301844 2.311466 -5.439021
6.304099 2.337239 -5.439015
6.304485 2.315760 -5.439028
6.287949 2.403336 -5.439000
6.288379 2.405225 -5.438995
6.290474 2.398870 -5.439004
6.292676 2.387259 -5.439007
6.294974 2.378620 -5.439015
6.297365 2.367677 -5.439022
6.299540 2.348825 -5.439030
6.301930 2.351692 -5.439028
6.303680 2.338956 -5.439044
6.304315 2.343761 -5.439046
6.288115 2.414328 -5.439015
6.288935 2.405020 -5.439019
6.290487 2.413149 -5.439021
6.292622 2.395254 -5.439025
6.295043 2.384112 -5.439035
6.297063 2.372948 -5.439040
6.299528 2.358637 -5.439043
6.301442 2.359194 -5.439048
6.303056 2.344287 -5.439050
6.303827 2.354865 -5.439059
6.289198 2.415511 -5.439035
6.288937 2.431395 -5.439032
6.290694 2.407988 -5.439033
6.292944 2.408231 -5.439045
6.294766 2.390059 -5.439050
6.297247 2.369043 -5.439056
6.298937 2.367162 -5.439062
6.301195 2.328330 -5.439055
6.302690 2.349064 -5.439071
6.302552 2.328913 -5.439072
6.288679 2.454748 -5.439026
6.289640 2.449121 -5.439030
6.291335 2.441971 -5.439050
6.292652 2.406220 -5.439048
6.295186 2.385346 -5.439057
6.296744 2.372047 -5.439061
6.299192 2.340575 -5.439060
6.300459 2.360038 -5.439069
6.301696 2.332036 -5.439072
6.302878 2.349455 -5.439073
6.289912 2.426525 -5.439042
6.291333 2.432169 -5.439052
6.290495 2.418379 -5.439058
6.293197 2.403871 -5.439063
6.294881 2.383874 -5.439068
6.297022 2.363302 -5.439069
6.298613 2.349826 -5.439074
6.301225 2.327716 -5.439077
6.300062 2.324474 -5.439079
6.301668 2.321544 -5.439079
6.290429 4.538828 -5.443402
6.292037 4.538044 -5.443401
6.291039 4.540031 -5.443403
6.293794 4.541737 -5.443408
6.295465 4.545728 -5.443414
6.297664 4.549515 -5.443419
6.299437 4.552918 -5.443424
6.302119 4.558073 -5.443427
6.301103 4.560213 -5.443429
6.302734 4.560360 -5.443429
6.289162 4.535446 -5.443392
6.290013 4.537516 -5.443393
6.292092 4.533487 -5.443394
6.293067 4.543921 -5.443404
6.295675 4.543764 -5.443408
6.297522 4.548234 -5.443416
6.299553 4.556074 -5.443422
6.301852 4.548896 -5.443424
6.302224 4.558222 -5.443424
6.303991 4.552689 -5.443421
6.289545 4.541849 -5.443402
6.289547 4.537905 -5.443400
6.290874 4.544267 -5.443405
6.293445 4.538716 -5.443408
6.295252 4.545201 -5.443415
6.297552 4.548332 -5.443420
6.299914 4.546492 -5.443427
6.301350 4.561356 -5.443431
6.304177 4.555196 -5.443431
6.303405 4.561573 -5.443429
6.288356 4.535498 -5.443406
6.289050 4.538323 -5.443407
6.290893 4.534183 -5.443410
6.292823 4.540065 -5.443415
6.295264 4.539663 -5.443417
6.297510 4.541483 -5.443422
6.299666 4.547835 -5.443428
6.302293 4.541522 -5.443431
6.303234 4.549468 -5.443430
6.304475 4.544188 -5.443430
6.287989 4.532556 -5.443415
6.288549 4.530831 -5.443418
6.290466 4.533532 -5.443420
6.292777 4.532274 -5.443422
6.295099 4.535032 -5.443423
6.297356 4.537435 -5.443426
6.299850 4.536224 -5.443430
6.301845 4.543398 -5.443428
6.304096 4.539225 -5.443431
6.304491 4.542584 -5.443431
6.287936 4.524480 -5.443425
6.288374 4.524575 -5.443426
6.290469 4.525023 -5.443427
6.292662 4.526987 -5.443427
6.294972 4.528268 -5.443428
6.297346 4.529564 -5.443429
6.299543 4.532593 -5.443430
6.301928 4.531295 -5.443430
6.303680 4.533796 -5.443430
6.304325 4.532558 -5.443433
6.288106 4.517185 -5.443432
6.288930 4.518166 -5.443432
6.290487 4.518010 -5.443431
6.292629 4.520373 -5.443431
6.295035 4.522059 -5.443430
6.297071 4.523964 -5.443430
6.299514 4.525262 -5.443428
6.301444 4.526017 -5.443425
6.303057 4.526159 -5.443426
6.303828 4.525289 -5.443426
6.289190 4.511494 -5.443436
6.288924 4.509948 -5.443436
6.290695 4.512384 -5.443435
6.292929 4.513708 -5.443433
6.294776 4.516499 -5.443432
6.297228 4.519175 -5.443430
6.298943 4.520166 -5.443428
6.301190 4.523513 -5.443425
6.302688 4.522807 -5.443425
6.302557 4.524400 -5.443425
6.288677 4.502148 -5.443434
6.289639 4.502806 -5.443433
6.291333 4.506662 -5.443433
6.292662 4.511043 -5.443432
6.295181 4.514558 -5.443429
6.296755 4.516863 -5.443427
6.299183 4.520334 -5.443423
6.300465 4.519045 -5.443421
6.301692 4.518933 -5.443419
6.302874 4.516934 -5.443420
6.289910 4.506509 -5.443435
6.291332 4.505565 -5.443435
6.290501 4.508210 -5.443436
6.293201 4.510767 -5.443435
6.294885 4.513957 -5.443433
6.297025 4.516959 -5.443429
6.298617 4.518815 -5.443428
6.301224 4.521584 -5.443425
6.300067 4.521516 -5.443424
6.301669 4.522054 -5.443423
